ARM GAS  C:\Users\haras\AppData\Local\Temp\ccolpQfo.s 			page 1


   1              		.syntax unified
   2              		.cpu cortex-m0
   3              		.fpu softvfp
   4              		.eabi_attribute 20, 1
   5              		.eabi_attribute 21, 1
   6              		.eabi_attribute 23, 3
   7              		.eabi_attribute 24, 1
   8              		.eabi_attribute 25, 1
   9              		.eabi_attribute 26, 1
  10              		.eabi_attribute 30, 1
  11              		.eabi_attribute 34, 0
  12              		.eabi_attribute 18, 4
  13              		.thumb
  14              		.syntax unified
  15              		.file	"EMG_DMA_3.c"
  16              		.text
  17              	.Ltext0:
  18              		.cfi_sections	.debug_frame
  19              		.section	.text.EMG_DMA_3_Init,"ax",%progbits
  20              		.align	2
  21              		.global	EMG_DMA_3_Init
  22              		.code	16
  23              		.thumb_func
  24              		.type	EMG_DMA_3_Init, %function
  25              	EMG_DMA_3_Init:
  26              	.LFB33:
  27              		.file 1 "Generated_Source\\PSoC4\\EMG_DMA_3.c"
   1:Generated_Source\PSoC4/EMG_DMA_3.c **** /*******************************************************************************
   2:Generated_Source\PSoC4/EMG_DMA_3.c **** * File Name: EMG_DMA_3.h
   3:Generated_Source\PSoC4/EMG_DMA_3.c **** * Version 1.0
   4:Generated_Source\PSoC4/EMG_DMA_3.c **** *
   5:Generated_Source\PSoC4/EMG_DMA_3.c **** * Description:
   6:Generated_Source\PSoC4/EMG_DMA_3.c **** *  This file contains all of the channel DMA API functions.
   7:Generated_Source\PSoC4/EMG_DMA_3.c **** *
   8:Generated_Source\PSoC4/EMG_DMA_3.c **** ********************************************************************************
   9:Generated_Source\PSoC4/EMG_DMA_3.c **** * Copyright 2015, Cypress Semiconductor Corporation. All rights reserved.
  10:Generated_Source\PSoC4/EMG_DMA_3.c **** * You may use this file only in accordance with the license, terms, conditions,
  11:Generated_Source\PSoC4/EMG_DMA_3.c **** * disclaimers, and limitations in the end user license agreement accompanying
  12:Generated_Source\PSoC4/EMG_DMA_3.c **** * the software package with which this file was provided.
  13:Generated_Source\PSoC4/EMG_DMA_3.c **** *******************************************************************************/
  14:Generated_Source\PSoC4/EMG_DMA_3.c **** 
  15:Generated_Source\PSoC4/EMG_DMA_3.c **** #include "EMG_DMA_3.h"
  16:Generated_Source\PSoC4/EMG_DMA_3.c **** 
  17:Generated_Source\PSoC4/EMG_DMA_3.c **** uint8 EMG_DMA_3_initVar = 0u;
  18:Generated_Source\PSoC4/EMG_DMA_3.c **** 
  19:Generated_Source\PSoC4/EMG_DMA_3.c **** 
  20:Generated_Source\PSoC4/EMG_DMA_3.c **** /*******************************************************************************
  21:Generated_Source\PSoC4/EMG_DMA_3.c **** * Function Name: EMG_DMA_3_Start
  22:Generated_Source\PSoC4/EMG_DMA_3.c **** ********************************************************************************
  23:Generated_Source\PSoC4/EMG_DMA_3.c **** *
  24:Generated_Source\PSoC4/EMG_DMA_3.c **** * Summary:
  25:Generated_Source\PSoC4/EMG_DMA_3.c **** *  Calls Init() to configure the DMA channel based on the customizer settings if
  26:Generated_Source\PSoC4/EMG_DMA_3.c **** *  the channel has not been initialized before.
  27:Generated_Source\PSoC4/EMG_DMA_3.c **** *  Sets source and destination address, validates descriptor 0 and enables the
  28:Generated_Source\PSoC4/EMG_DMA_3.c **** *  channel. After calling this function the DMA channel is active and waiting
  29:Generated_Source\PSoC4/EMG_DMA_3.c **** *  for a trigger.
  30:Generated_Source\PSoC4/EMG_DMA_3.c **** *
ARM GAS  C:\Users\haras\AppData\Local\Temp\ccolpQfo.s 			page 2


  31:Generated_Source\PSoC4/EMG_DMA_3.c **** * Parameters:
  32:Generated_Source\PSoC4/EMG_DMA_3.c **** *  srcAddress: Address of DMA transfer source for descriptor 0.
  33:Generated_Source\PSoC4/EMG_DMA_3.c **** *  dstAddress: Address of DMA transfer destination for descriptor 0.
  34:Generated_Source\PSoC4/EMG_DMA_3.c **** *                   
  35:Generated_Source\PSoC4/EMG_DMA_3.c **** * Return:
  36:Generated_Source\PSoC4/EMG_DMA_3.c **** *  None.
  37:Generated_Source\PSoC4/EMG_DMA_3.c **** *
  38:Generated_Source\PSoC4/EMG_DMA_3.c **** *******************************************************************************/
  39:Generated_Source\PSoC4/EMG_DMA_3.c **** void EMG_DMA_3_Start(void * srcAddress, void * dstAddress)
  40:Generated_Source\PSoC4/EMG_DMA_3.c **** {
  41:Generated_Source\PSoC4/EMG_DMA_3.c ****     if(0u == EMG_DMA_3_initVar)
  42:Generated_Source\PSoC4/EMG_DMA_3.c ****     {
  43:Generated_Source\PSoC4/EMG_DMA_3.c ****         EMG_DMA_3_Init();
  44:Generated_Source\PSoC4/EMG_DMA_3.c ****         EMG_DMA_3_initVar = 1u;
  45:Generated_Source\PSoC4/EMG_DMA_3.c ****     }
  46:Generated_Source\PSoC4/EMG_DMA_3.c ****     CyDmaEnable();
  47:Generated_Source\PSoC4/EMG_DMA_3.c ****     EMG_DMA_3_SetSrcAddress(0, srcAddress);
  48:Generated_Source\PSoC4/EMG_DMA_3.c ****     EMG_DMA_3_SetDstAddress(0, dstAddress);
  49:Generated_Source\PSoC4/EMG_DMA_3.c ****     EMG_DMA_3_ValidateDescriptor(0);
  50:Generated_Source\PSoC4/EMG_DMA_3.c ****     EMG_DMA_3_ChEnable();
  51:Generated_Source\PSoC4/EMG_DMA_3.c **** }
  52:Generated_Source\PSoC4/EMG_DMA_3.c **** 
  53:Generated_Source\PSoC4/EMG_DMA_3.c **** 
  54:Generated_Source\PSoC4/EMG_DMA_3.c **** /*******************************************************************************
  55:Generated_Source\PSoC4/EMG_DMA_3.c **** * Function Name: EMG_DMA_3_Init
  56:Generated_Source\PSoC4/EMG_DMA_3.c **** ********************************************************************************
  57:Generated_Source\PSoC4/EMG_DMA_3.c **** *
  58:Generated_Source\PSoC4/EMG_DMA_3.c **** * Summary:
  59:Generated_Source\PSoC4/EMG_DMA_3.c **** *  Initializes the DMA channel based on the parameters set in the component
  60:Generated_Source\PSoC4/EMG_DMA_3.c **** *  customizer. It is not necessary to call EMG_DMA_3_Init() because the
  61:Generated_Source\PSoC4/EMG_DMA_3.c **** *  EMG_DMA_3_Start() API calls this function, which is the preferred method
  62:Generated_Source\PSoC4/EMG_DMA_3.c **** *  to begin component operation.
  63:Generated_Source\PSoC4/EMG_DMA_3.c **** *
  64:Generated_Source\PSoC4/EMG_DMA_3.c **** * Parameters:
  65:Generated_Source\PSoC4/EMG_DMA_3.c **** *  None.
  66:Generated_Source\PSoC4/EMG_DMA_3.c **** *                   
  67:Generated_Source\PSoC4/EMG_DMA_3.c **** * Return:
  68:Generated_Source\PSoC4/EMG_DMA_3.c **** *  None.
  69:Generated_Source\PSoC4/EMG_DMA_3.c **** *
  70:Generated_Source\PSoC4/EMG_DMA_3.c **** * Side effect:
  71:Generated_Source\PSoC4/EMG_DMA_3.c **** *  The first descriptor is set to descriptor 0. This function should not be
  72:Generated_Source\PSoC4/EMG_DMA_3.c **** *  called while the channel is enabled. All settings will be reset to their
  73:Generated_Source\PSoC4/EMG_DMA_3.c **** *  initial values.
  74:Generated_Source\PSoC4/EMG_DMA_3.c **** *
  75:Generated_Source\PSoC4/EMG_DMA_3.c **** *******************************************************************************/
  76:Generated_Source\PSoC4/EMG_DMA_3.c **** void EMG_DMA_3_Init(void)
  77:Generated_Source\PSoC4/EMG_DMA_3.c **** {
  28              		.loc 1 77 0
  29              		.cfi_startproc
  30              		@ args = 0, pretend = 0, frame = 0
  31              		@ frame_needed = 0, uses_anonymous_args = 0
  32              		@ link register save eliminated.
  78:Generated_Source\PSoC4/EMG_DMA_3.c ****     CYDMA_CH_CTL_BASE.ctl[EMG_DMA_3_CHANNEL] = EMG_DMA_3_CHANNEL_CFG;
  33              		.loc 1 78 0
  34 0000 C022     		movs	r2, #192
  35 0002 9205     		lsls	r2, r2, #22
  36 0004 034B     		ldr	r3, .L2
ARM GAS  C:\Users\haras\AppData\Local\Temp\ccolpQfo.s 			page 3


  37 0006 1A60     		str	r2, [r3]
  79:Generated_Source\PSoC4/EMG_DMA_3.c ****     CYDMA_DESCR_BASE.descriptor[EMG_DMA_3_CHANNEL][0].ctl = EMG_DMA_3_DESCR0_CFG;
  38              		.loc 1 79 0
  39 0008 034B     		ldr	r3, .L2+4
  40 000a 044A     		ldr	r2, .L2+8
  41 000c 9A60     		str	r2, [r3, #8]
  80:Generated_Source\PSoC4/EMG_DMA_3.c ****     CYDMA_DESCR_BASE.descriptor[EMG_DMA_3_CHANNEL][1].ctl = EMG_DMA_3_DESCR1_CFG;
  42              		.loc 1 80 0
  43 000e 0022     		movs	r2, #0
  44 0010 9A61     		str	r2, [r3, #24]
  81:Generated_Source\PSoC4/EMG_DMA_3.c **** 
  82:Generated_Source\PSoC4/EMG_DMA_3.c ****     /* If the Generate IRQ option is selected for descriptor 0 or 1, set the
  83:Generated_Source\PSoC4/EMG_DMA_3.c ****     * channel bit field in the DMA interrupt mask register.
  84:Generated_Source\PSoC4/EMG_DMA_3.c ****     */
  85:Generated_Source\PSoC4/EMG_DMA_3.c ****     #if (0u != ((EMG_DMA_3_DESCR0_CFG | EMG_DMA_3_DESCR1_CFG) & CYDMA_GENERATE_IRQ))
  86:Generated_Source\PSoC4/EMG_DMA_3.c ****         CYDMA_INTR_MASK_REG |= EMG_DMA_3_CHANNEL_MASK;
  87:Generated_Source\PSoC4/EMG_DMA_3.c ****     #endif /* (0u != ((EMG_DMA_3_DESCR0_CFG | EMG_DMA_3_DESCR1_CFG) & CYDMA_GENERATE_IRQ)) */
  88:Generated_Source\PSoC4/EMG_DMA_3.c **** }
  45              		.loc 1 88 0
  46              		@ sp needed
  47 0012 7047     		bx	lr
  48              	.L3:
  49              		.align	2
  50              	.L2:
  51 0014 80101040 		.word	1074794624
  52 0018 00181040 		.word	1074796544
  53 001c 27006107 		.word	123797543
  54              		.cfi_endproc
  55              	.LFE33:
  56              		.size	EMG_DMA_3_Init, .-EMG_DMA_3_Init
  57              		.section	.text.EMG_DMA_3_Start,"ax",%progbits
  58              		.align	2
  59              		.global	EMG_DMA_3_Start
  60              		.code	16
  61              		.thumb_func
  62              		.type	EMG_DMA_3_Start, %function
  63              	EMG_DMA_3_Start:
  64              	.LFB32:
  40:Generated_Source\PSoC4/EMG_DMA_3.c ****     if(0u == EMG_DMA_3_initVar)
  65              		.loc 1 40 0
  66              		.cfi_startproc
  67              		@ args = 0, pretend = 0, frame = 0
  68              		@ frame_needed = 0, uses_anonymous_args = 0
  69              	.LVL0:
  70 0000 70B5     		push	{r4, r5, r6, lr}
  71              		.cfi_def_cfa_offset 16
  72              		.cfi_offset 4, -16
  73              		.cfi_offset 5, -12
  74              		.cfi_offset 6, -8
  75              		.cfi_offset 14, -4
  76 0002 0500     		movs	r5, r0
  77 0004 0C00     		movs	r4, r1
  41:Generated_Source\PSoC4/EMG_DMA_3.c ****     {
  78              		.loc 1 41 0
  79 0006 0E4B     		ldr	r3, .L6
  80 0008 1B78     		ldrb	r3, [r3]
  81 000a 002B     		cmp	r3, #0
ARM GAS  C:\Users\haras\AppData\Local\Temp\ccolpQfo.s 			page 4


  82 000c 04D1     		bne	.L5
  43:Generated_Source\PSoC4/EMG_DMA_3.c ****         EMG_DMA_3_initVar = 1u;
  83              		.loc 1 43 0
  84 000e FFF7FEFF 		bl	EMG_DMA_3_Init
  85              	.LVL1:
  44:Generated_Source\PSoC4/EMG_DMA_3.c ****     }
  86              		.loc 1 44 0
  87 0012 0122     		movs	r2, #1
  88 0014 0A4B     		ldr	r3, .L6
  89 0016 1A70     		strb	r2, [r3]
  90              	.L5:
  46:Generated_Source\PSoC4/EMG_DMA_3.c ****     EMG_DMA_3_SetSrcAddress(0, srcAddress);
  91              		.loc 1 46 0
  92 0018 FFF7FEFF 		bl	CyDmaEnable
  93              	.LVL2:
  94              	.LBB10:
  95              	.LBB11:
  96              		.file 2 "Generated_Source\\PSoC4\\EMG_DMA_3.h"
   1:Generated_Source\PSoC4/EMG_DMA_3.h **** /*******************************************************************************
   2:Generated_Source\PSoC4/EMG_DMA_3.h **** * File Name: EMG_DMA_3.h
   3:Generated_Source\PSoC4/EMG_DMA_3.h **** * Version 1.0
   4:Generated_Source\PSoC4/EMG_DMA_3.h **** *
   5:Generated_Source\PSoC4/EMG_DMA_3.h **** * Description:
   6:Generated_Source\PSoC4/EMG_DMA_3.h **** *  This file provides DMA channel defines and API function definitions.
   7:Generated_Source\PSoC4/EMG_DMA_3.h **** *
   8:Generated_Source\PSoC4/EMG_DMA_3.h **** ********************************************************************************
   9:Generated_Source\PSoC4/EMG_DMA_3.h **** * Copyright 2015, Cypress Semiconductor Corporation. All rights reserved.
  10:Generated_Source\PSoC4/EMG_DMA_3.h **** * You may use this file only in accordance with the license, terms, conditions,
  11:Generated_Source\PSoC4/EMG_DMA_3.h **** * disclaimers, and limitations in the end user license agreement accompanying
  12:Generated_Source\PSoC4/EMG_DMA_3.h **** * the software package with which this file was provided.
  13:Generated_Source\PSoC4/EMG_DMA_3.h **** *******************************************************************************/
  14:Generated_Source\PSoC4/EMG_DMA_3.h **** 
  15:Generated_Source\PSoC4/EMG_DMA_3.h **** #ifndef CY_DMA_CHANNEL_EMG_DMA_3_H
  16:Generated_Source\PSoC4/EMG_DMA_3.h **** #define CY_DMA_CHANNEL_EMG_DMA_3_H
  17:Generated_Source\PSoC4/EMG_DMA_3.h **** 
  18:Generated_Source\PSoC4/EMG_DMA_3.h **** #include "CyDMA.h"
  19:Generated_Source\PSoC4/EMG_DMA_3.h **** 
  20:Generated_Source\PSoC4/EMG_DMA_3.h ****     
  21:Generated_Source\PSoC4/EMG_DMA_3.h **** /***************************************
  22:Generated_Source\PSoC4/EMG_DMA_3.h **** *   Conditional Compilation Parameters
  23:Generated_Source\PSoC4/EMG_DMA_3.h **** ***************************************/
  24:Generated_Source\PSoC4/EMG_DMA_3.h **** 
  25:Generated_Source\PSoC4/EMG_DMA_3.h **** #define EMG_DMA_3_CHANNEL           (EMG_DMA_3__CHANNEL_NUMBER)
  26:Generated_Source\PSoC4/EMG_DMA_3.h **** #define EMG_DMA_3_CHANNEL_MASK      ((uint32)(1UL << EMG_DMA_3_CHANNEL))
  27:Generated_Source\PSoC4/EMG_DMA_3.h **** 
  28:Generated_Source\PSoC4/EMG_DMA_3.h **** 
  29:Generated_Source\PSoC4/EMG_DMA_3.h **** /***************************************
  30:Generated_Source\PSoC4/EMG_DMA_3.h **** *        Function Prototypes
  31:Generated_Source\PSoC4/EMG_DMA_3.h **** ***************************************/
  32:Generated_Source\PSoC4/EMG_DMA_3.h **** 
  33:Generated_Source\PSoC4/EMG_DMA_3.h **** /* Functions specific to this DMA channel */
  34:Generated_Source\PSoC4/EMG_DMA_3.h **** void EMG_DMA_3_Init(void);
  35:Generated_Source\PSoC4/EMG_DMA_3.h **** void EMG_DMA_3_Start(void * srcAddress, void * dstAddress);
  36:Generated_Source\PSoC4/EMG_DMA_3.h **** 
  37:Generated_Source\PSoC4/EMG_DMA_3.h **** /* Inline functions that call global API functions */
  38:Generated_Source\PSoC4/EMG_DMA_3.h **** static void   EMG_DMA_3_ChEnable(void);
  39:Generated_Source\PSoC4/EMG_DMA_3.h **** static void   EMG_DMA_3_ChDisable(void);
ARM GAS  C:\Users\haras\AppData\Local\Temp\ccolpQfo.s 			page 5


  40:Generated_Source\PSoC4/EMG_DMA_3.h **** static void   EMG_DMA_3_Trigger(void);
  41:Generated_Source\PSoC4/EMG_DMA_3.h **** static void   EMG_DMA_3_SetPriority(int32 priority);
  42:Generated_Source\PSoC4/EMG_DMA_3.h **** static int32  EMG_DMA_3_GetPriority(void);
  43:Generated_Source\PSoC4/EMG_DMA_3.h **** static void   EMG_DMA_3_SetNextDescriptor(int32 descriptor);
  44:Generated_Source\PSoC4/EMG_DMA_3.h **** static int32  EMG_DMA_3_GetNextDescriptor(void);
  45:Generated_Source\PSoC4/EMG_DMA_3.h **** static void   EMG_DMA_3_SetConfiguration(int32 descriptor, const cydma_init_struct * config);
  46:Generated_Source\PSoC4/EMG_DMA_3.h **** static void   EMG_DMA_3_ValidateDescriptor(int32 descriptor);
  47:Generated_Source\PSoC4/EMG_DMA_3.h **** static uint32 EMG_DMA_3_GetDescriptorStatus(int32 descriptor);
  48:Generated_Source\PSoC4/EMG_DMA_3.h **** static void   EMG_DMA_3_SetSrcAddress(int32 descriptor, void * srcAddress);
  49:Generated_Source\PSoC4/EMG_DMA_3.h **** static void * EMG_DMA_3_GetSrcAddress(int32 descriptor);
  50:Generated_Source\PSoC4/EMG_DMA_3.h **** static void   EMG_DMA_3_SetDstAddress(int32 descriptor, void * dstAddress);
  51:Generated_Source\PSoC4/EMG_DMA_3.h **** static void * EMG_DMA_3_GetDstAddress(int32 descriptor);
  52:Generated_Source\PSoC4/EMG_DMA_3.h **** static void   EMG_DMA_3_SetDataElementSize(int32 descriptor, uint32 dataElementSize);
  53:Generated_Source\PSoC4/EMG_DMA_3.h **** static uint32 EMG_DMA_3_GetDataElementSize(int32 descriptor);
  54:Generated_Source\PSoC4/EMG_DMA_3.h **** static void   EMG_DMA_3_SetNumDataElements(int32 descriptor, int32 numDataElements);
  55:Generated_Source\PSoC4/EMG_DMA_3.h **** static int32  EMG_DMA_3_GetNumDataElements(int32 descriptor);
  56:Generated_Source\PSoC4/EMG_DMA_3.h **** static void   EMG_DMA_3_SetSrcDstTransferWidth(int32 descriptor, uint32 transferWidth);
  57:Generated_Source\PSoC4/EMG_DMA_3.h **** static uint32 EMG_DMA_3_GetSrcDstTransferWidth(int32 descriptor);
  58:Generated_Source\PSoC4/EMG_DMA_3.h **** static void   EMG_DMA_3_SetAddressIncrement(int32 descriptor, uint32 addressIncrement);
  59:Generated_Source\PSoC4/EMG_DMA_3.h **** static uint32 EMG_DMA_3_GetAddressIncrement(int32 descriptor);
  60:Generated_Source\PSoC4/EMG_DMA_3.h **** static void   EMG_DMA_3_SetTriggerType(int32 descriptor, uint32 triggerType);
  61:Generated_Source\PSoC4/EMG_DMA_3.h **** static uint32 EMG_DMA_3_GetTriggerType(int32 descriptor);
  62:Generated_Source\PSoC4/EMG_DMA_3.h **** static void   EMG_DMA_3_SetTransferMode(int32 descriptor, uint32 transferMode);
  63:Generated_Source\PSoC4/EMG_DMA_3.h **** static uint32 EMG_DMA_3_GetTransferMode(int32 descriptor);
  64:Generated_Source\PSoC4/EMG_DMA_3.h **** static void   EMG_DMA_3_SetPreemptable(int32 descriptor, uint32 preemptable);
  65:Generated_Source\PSoC4/EMG_DMA_3.h **** static uint32 EMG_DMA_3_GetPreemptable(int32 descriptor);
  66:Generated_Source\PSoC4/EMG_DMA_3.h **** static void   EMG_DMA_3_SetPostCompletionActions(int32 descriptor, uint32 actions);
  67:Generated_Source\PSoC4/EMG_DMA_3.h **** static uint32 EMG_DMA_3_GetPostCompletionAction(int32 descriptor);
  68:Generated_Source\PSoC4/EMG_DMA_3.h **** static cydma_callback_t EMG_DMA_3_SetInterruptCallback(cydma_callback_t callback);
  69:Generated_Source\PSoC4/EMG_DMA_3.h **** static cydma_callback_t EMG_DMA_3_GetInterruptCallback(void);
  70:Generated_Source\PSoC4/EMG_DMA_3.h **** 
  71:Generated_Source\PSoC4/EMG_DMA_3.h **** 
  72:Generated_Source\PSoC4/EMG_DMA_3.h **** /*******************************************************************************
  73:Generated_Source\PSoC4/EMG_DMA_3.h **** * Function Name: EMG_DMA_3_ChEnable
  74:Generated_Source\PSoC4/EMG_DMA_3.h **** ********************************************************************************
  75:Generated_Source\PSoC4/EMG_DMA_3.h **** *
  76:Generated_Source\PSoC4/EMG_DMA_3.h **** * Summary:
  77:Generated_Source\PSoC4/EMG_DMA_3.h **** *  Enables the DMA channel. It is not necessary to call EMG_DMA_3_ChEnable()
  78:Generated_Source\PSoC4/EMG_DMA_3.h **** *  because the EMG_DMA_3_Start() API calls this function, which is the
  79:Generated_Source\PSoC4/EMG_DMA_3.h **** *  preferred method to begin the component operation.
  80:Generated_Source\PSoC4/EMG_DMA_3.h **** *
  81:Generated_Source\PSoC4/EMG_DMA_3.h **** * Parameters:
  82:Generated_Source\PSoC4/EMG_DMA_3.h **** *  None.
  83:Generated_Source\PSoC4/EMG_DMA_3.h **** *                   
  84:Generated_Source\PSoC4/EMG_DMA_3.h **** * Return:
  85:Generated_Source\PSoC4/EMG_DMA_3.h **** *  None.
  86:Generated_Source\PSoC4/EMG_DMA_3.h **** *
  87:Generated_Source\PSoC4/EMG_DMA_3.h **** * Side effect:
  88:Generated_Source\PSoC4/EMG_DMA_3.h **** *  If this function is called before EMG_DMA_3_Start(), or EMG_DMA_3_Init()
  89:Generated_Source\PSoC4/EMG_DMA_3.h **** *  or EMG_DMA_3_SetConfiguration(), and EMG_DMA_3_SetSrcAddress()
  90:Generated_Source\PSoC4/EMG_DMA_3.h **** *  and EMG_DMA_3_SetDstAddress the operation of the DMA is 
  91:Generated_Source\PSoC4/EMG_DMA_3.h **** *  undefined and could result in system data corruption. 
  92:Generated_Source\PSoC4/EMG_DMA_3.h **** *
  93:Generated_Source\PSoC4/EMG_DMA_3.h **** *******************************************************************************/
  94:Generated_Source\PSoC4/EMG_DMA_3.h **** static CY_INLINE void EMG_DMA_3_ChEnable(void)
  95:Generated_Source\PSoC4/EMG_DMA_3.h **** {
  96:Generated_Source\PSoC4/EMG_DMA_3.h ****     CyDmaChEnable(EMG_DMA_3_CHANNEL);
ARM GAS  C:\Users\haras\AppData\Local\Temp\ccolpQfo.s 			page 6


  97:Generated_Source\PSoC4/EMG_DMA_3.h **** }
  98:Generated_Source\PSoC4/EMG_DMA_3.h **** 
  99:Generated_Source\PSoC4/EMG_DMA_3.h **** 
 100:Generated_Source\PSoC4/EMG_DMA_3.h **** /*******************************************************************************
 101:Generated_Source\PSoC4/EMG_DMA_3.h **** * Function Name: EMG_DMA_3_ChDisable
 102:Generated_Source\PSoC4/EMG_DMA_3.h **** ********************************************************************************
 103:Generated_Source\PSoC4/EMG_DMA_3.h **** *
 104:Generated_Source\PSoC4/EMG_DMA_3.h **** * Summary:
 105:Generated_Source\PSoC4/EMG_DMA_3.h **** *  Disables the DMA channel.
 106:Generated_Source\PSoC4/EMG_DMA_3.h **** *
 107:Generated_Source\PSoC4/EMG_DMA_3.h **** * Parameters:
 108:Generated_Source\PSoC4/EMG_DMA_3.h **** *  None.
 109:Generated_Source\PSoC4/EMG_DMA_3.h **** *                   
 110:Generated_Source\PSoC4/EMG_DMA_3.h **** * Return:
 111:Generated_Source\PSoC4/EMG_DMA_3.h **** *  None.
 112:Generated_Source\PSoC4/EMG_DMA_3.h **** *
 113:Generated_Source\PSoC4/EMG_DMA_3.h **** * Side effect:
 114:Generated_Source\PSoC4/EMG_DMA_3.h **** *  If this function is called during a DMA transfer the transfer is aborted. 
 115:Generated_Source\PSoC4/EMG_DMA_3.h **** *
 116:Generated_Source\PSoC4/EMG_DMA_3.h **** *******************************************************************************/
 117:Generated_Source\PSoC4/EMG_DMA_3.h **** static CY_INLINE void EMG_DMA_3_ChDisable(void)
 118:Generated_Source\PSoC4/EMG_DMA_3.h **** {
 119:Generated_Source\PSoC4/EMG_DMA_3.h ****     CyDmaChDisable(EMG_DMA_3_CHANNEL);
 120:Generated_Source\PSoC4/EMG_DMA_3.h **** }
 121:Generated_Source\PSoC4/EMG_DMA_3.h **** 
 122:Generated_Source\PSoC4/EMG_DMA_3.h **** 
 123:Generated_Source\PSoC4/EMG_DMA_3.h **** /*******************************************************************************
 124:Generated_Source\PSoC4/EMG_DMA_3.h **** * Function Name: EMG_DMA_3_Trigger
 125:Generated_Source\PSoC4/EMG_DMA_3.h **** ********************************************************************************
 126:Generated_Source\PSoC4/EMG_DMA_3.h **** *
 127:Generated_Source\PSoC4/EMG_DMA_3.h **** * Summary:
 128:Generated_Source\PSoC4/EMG_DMA_3.h **** *  Triggers the DMA channel, this is useful only for software triggers. This is
 129:Generated_Source\PSoC4/EMG_DMA_3.h **** *  not needed when hardware triggers are used.
 130:Generated_Source\PSoC4/EMG_DMA_3.h **** *
 131:Generated_Source\PSoC4/EMG_DMA_3.h **** * Parameters:
 132:Generated_Source\PSoC4/EMG_DMA_3.h **** *  None.
 133:Generated_Source\PSoC4/EMG_DMA_3.h **** *                   
 134:Generated_Source\PSoC4/EMG_DMA_3.h **** * Return:
 135:Generated_Source\PSoC4/EMG_DMA_3.h **** *  None. 
 136:Generated_Source\PSoC4/EMG_DMA_3.h **** *
 137:Generated_Source\PSoC4/EMG_DMA_3.h **** *******************************************************************************/
 138:Generated_Source\PSoC4/EMG_DMA_3.h **** static CY_INLINE void EMG_DMA_3_Trigger(void)
 139:Generated_Source\PSoC4/EMG_DMA_3.h **** {
 140:Generated_Source\PSoC4/EMG_DMA_3.h ****     CyDmaTrigger(EMG_DMA_3_CHANNEL);
 141:Generated_Source\PSoC4/EMG_DMA_3.h **** }
 142:Generated_Source\PSoC4/EMG_DMA_3.h **** 
 143:Generated_Source\PSoC4/EMG_DMA_3.h **** 
 144:Generated_Source\PSoC4/EMG_DMA_3.h **** /*******************************************************************************
 145:Generated_Source\PSoC4/EMG_DMA_3.h **** * Function Name: EMG_DMA_3_SetPriority
 146:Generated_Source\PSoC4/EMG_DMA_3.h **** ********************************************************************************
 147:Generated_Source\PSoC4/EMG_DMA_3.h **** *
 148:Generated_Source\PSoC4/EMG_DMA_3.h **** * Summary:
 149:Generated_Source\PSoC4/EMG_DMA_3.h **** *  Sets the priority for the channel.
 150:Generated_Source\PSoC4/EMG_DMA_3.h **** *
 151:Generated_Source\PSoC4/EMG_DMA_3.h **** * Parameters:
 152:Generated_Source\PSoC4/EMG_DMA_3.h **** *  priority: Priority for channel. Priority can be 0,1,2, or 3.
 153:Generated_Source\PSoC4/EMG_DMA_3.h **** *            0 is the highest priority.
ARM GAS  C:\Users\haras\AppData\Local\Temp\ccolpQfo.s 			page 7


 154:Generated_Source\PSoC4/EMG_DMA_3.h **** *                   
 155:Generated_Source\PSoC4/EMG_DMA_3.h **** * Return:
 156:Generated_Source\PSoC4/EMG_DMA_3.h **** *  None.
 157:Generated_Source\PSoC4/EMG_DMA_3.h **** *
 158:Generated_Source\PSoC4/EMG_DMA_3.h **** * Side effect:
 159:Generated_Source\PSoC4/EMG_DMA_3.h **** *  This function should not be called while the channel is enabled.
 160:Generated_Source\PSoC4/EMG_DMA_3.h **** *
 161:Generated_Source\PSoC4/EMG_DMA_3.h **** *******************************************************************************/
 162:Generated_Source\PSoC4/EMG_DMA_3.h **** static CY_INLINE void EMG_DMA_3_SetPriority(int32 priority)
 163:Generated_Source\PSoC4/EMG_DMA_3.h **** {
 164:Generated_Source\PSoC4/EMG_DMA_3.h ****     CyDmaSetPriority(EMG_DMA_3_CHANNEL, priority);
 165:Generated_Source\PSoC4/EMG_DMA_3.h **** }
 166:Generated_Source\PSoC4/EMG_DMA_3.h **** 
 167:Generated_Source\PSoC4/EMG_DMA_3.h **** 
 168:Generated_Source\PSoC4/EMG_DMA_3.h **** /*******************************************************************************
 169:Generated_Source\PSoC4/EMG_DMA_3.h **** * Function Name: EMG_DMA_3_GetPriority
 170:Generated_Source\PSoC4/EMG_DMA_3.h **** ********************************************************************************
 171:Generated_Source\PSoC4/EMG_DMA_3.h **** *
 172:Generated_Source\PSoC4/EMG_DMA_3.h **** * Summary:
 173:Generated_Source\PSoC4/EMG_DMA_3.h **** *  Gets the priority for the channel.
 174:Generated_Source\PSoC4/EMG_DMA_3.h **** *
 175:Generated_Source\PSoC4/EMG_DMA_3.h **** * Parameters:
 176:Generated_Source\PSoC4/EMG_DMA_3.h **** *  None.
 177:Generated_Source\PSoC4/EMG_DMA_3.h **** *                   
 178:Generated_Source\PSoC4/EMG_DMA_3.h **** * Return:
 179:Generated_Source\PSoC4/EMG_DMA_3.h **** *  Priority for channel. Priority can be 0,1,2, or 3. 0 is the highest priority.
 180:Generated_Source\PSoC4/EMG_DMA_3.h **** *
 181:Generated_Source\PSoC4/EMG_DMA_3.h **** *******************************************************************************/
 182:Generated_Source\PSoC4/EMG_DMA_3.h **** static CY_INLINE int32 EMG_DMA_3_GetPriority(void)
 183:Generated_Source\PSoC4/EMG_DMA_3.h **** {
 184:Generated_Source\PSoC4/EMG_DMA_3.h ****     return (CyDmaGetPriority(EMG_DMA_3_CHANNEL));
 185:Generated_Source\PSoC4/EMG_DMA_3.h **** }
 186:Generated_Source\PSoC4/EMG_DMA_3.h **** 
 187:Generated_Source\PSoC4/EMG_DMA_3.h **** 
 188:Generated_Source\PSoC4/EMG_DMA_3.h **** /*******************************************************************************
 189:Generated_Source\PSoC4/EMG_DMA_3.h **** * Function Name: EMG_DMA_3_SetNextDescriptor
 190:Generated_Source\PSoC4/EMG_DMA_3.h **** ********************************************************************************
 191:Generated_Source\PSoC4/EMG_DMA_3.h **** *
 192:Generated_Source\PSoC4/EMG_DMA_3.h **** * Summary:
 193:Generated_Source\PSoC4/EMG_DMA_3.h **** *  Sets the descriptor that should be run the next time the channel is
 194:Generated_Source\PSoC4/EMG_DMA_3.h **** *  triggered.
 195:Generated_Source\PSoC4/EMG_DMA_3.h **** *
 196:Generated_Source\PSoC4/EMG_DMA_3.h **** * Parameters:
 197:Generated_Source\PSoC4/EMG_DMA_3.h **** *  descriptor: Next Descriptor to run (0 or 1).
 198:Generated_Source\PSoC4/EMG_DMA_3.h **** *                   
 199:Generated_Source\PSoC4/EMG_DMA_3.h **** * Side effect:
 200:Generated_Source\PSoC4/EMG_DMA_3.h **** *  This function should not be called while the channel is enabled.
 201:Generated_Source\PSoC4/EMG_DMA_3.h **** *
 202:Generated_Source\PSoC4/EMG_DMA_3.h **** *******************************************************************************/
 203:Generated_Source\PSoC4/EMG_DMA_3.h **** static CY_INLINE void EMG_DMA_3_SetNextDescriptor(int32 descriptor)
 204:Generated_Source\PSoC4/EMG_DMA_3.h **** {
 205:Generated_Source\PSoC4/EMG_DMA_3.h ****     CyDmaSetNextDescriptor(EMG_DMA_3_CHANNEL, descriptor);
 206:Generated_Source\PSoC4/EMG_DMA_3.h **** }
 207:Generated_Source\PSoC4/EMG_DMA_3.h **** 
 208:Generated_Source\PSoC4/EMG_DMA_3.h **** 
 209:Generated_Source\PSoC4/EMG_DMA_3.h **** /*******************************************************************************
 210:Generated_Source\PSoC4/EMG_DMA_3.h **** * Function Name: EMG_DMA_3_GetNextDescriptor
ARM GAS  C:\Users\haras\AppData\Local\Temp\ccolpQfo.s 			page 8


 211:Generated_Source\PSoC4/EMG_DMA_3.h **** ********************************************************************************
 212:Generated_Source\PSoC4/EMG_DMA_3.h **** *
 213:Generated_Source\PSoC4/EMG_DMA_3.h **** * Summary:
 214:Generated_Source\PSoC4/EMG_DMA_3.h **** *  Returns the next descriptor that should be run, as set by 
 215:Generated_Source\PSoC4/EMG_DMA_3.h **** *  EMG_DMA_3_SetNextDescriptor().
 216:Generated_Source\PSoC4/EMG_DMA_3.h **** *
 217:Generated_Source\PSoC4/EMG_DMA_3.h **** * Parameters:
 218:Generated_Source\PSoC4/EMG_DMA_3.h **** *  None.
 219:Generated_Source\PSoC4/EMG_DMA_3.h **** *                   
 220:Generated_Source\PSoC4/EMG_DMA_3.h **** * Return:
 221:Generated_Source\PSoC4/EMG_DMA_3.h **** *  Next Descriptor to run (0 or 1).
 222:Generated_Source\PSoC4/EMG_DMA_3.h **** *
 223:Generated_Source\PSoC4/EMG_DMA_3.h **** *******************************************************************************/
 224:Generated_Source\PSoC4/EMG_DMA_3.h **** static CY_INLINE int32 EMG_DMA_3_GetNextDescriptor(void)
 225:Generated_Source\PSoC4/EMG_DMA_3.h **** {
 226:Generated_Source\PSoC4/EMG_DMA_3.h ****     return (CyDmaGetNextDescriptor(EMG_DMA_3_CHANNEL));
 227:Generated_Source\PSoC4/EMG_DMA_3.h **** }
 228:Generated_Source\PSoC4/EMG_DMA_3.h **** 
 229:Generated_Source\PSoC4/EMG_DMA_3.h **** 
 230:Generated_Source\PSoC4/EMG_DMA_3.h **** /*******************************************************************************
 231:Generated_Source\PSoC4/EMG_DMA_3.h **** * Function Name: EMG_DMA_3_SetConfiguration
 232:Generated_Source\PSoC4/EMG_DMA_3.h **** ********************************************************************************
 233:Generated_Source\PSoC4/EMG_DMA_3.h **** *
 234:Generated_Source\PSoC4/EMG_DMA_3.h **** * Summary:
 235:Generated_Source\PSoC4/EMG_DMA_3.h **** *  Sets configuration information for the specified descriptor.
 236:Generated_Source\PSoC4/EMG_DMA_3.h **** *
 237:Generated_Source\PSoC4/EMG_DMA_3.h **** * Parameters:
 238:Generated_Source\PSoC4/EMG_DMA_3.h **** *  descriptor: Descriptor (0 or 1) modified by this function.
 239:Generated_Source\PSoC4/EMG_DMA_3.h **** *  config: Pointer to a configuration structure. Refer to cydma_init_struct
 240:Generated_Source\PSoC4/EMG_DMA_3.h **** *          structure definition in CyDMA_P4.h or the component datasheet.
 241:Generated_Source\PSoC4/EMG_DMA_3.h **** *                   
 242:Generated_Source\PSoC4/EMG_DMA_3.h **** * Return:
 243:Generated_Source\PSoC4/EMG_DMA_3.h **** *  None.
 244:Generated_Source\PSoC4/EMG_DMA_3.h **** *
 245:Generated_Source\PSoC4/EMG_DMA_3.h **** * Side effect:
 246:Generated_Source\PSoC4/EMG_DMA_3.h **** *  The status register associated with the specified descriptor is reset to
 247:Generated_Source\PSoC4/EMG_DMA_3.h **** *  zero after this function call. This function also validates the descriptor.
 248:Generated_Source\PSoC4/EMG_DMA_3.h **** *  This function should not be called while the descriptor is active.
 249:Generated_Source\PSoC4/EMG_DMA_3.h **** *  This can be checked by calling CyDmaGetStatus().
 250:Generated_Source\PSoC4/EMG_DMA_3.h **** *
 251:Generated_Source\PSoC4/EMG_DMA_3.h **** *******************************************************************************/
 252:Generated_Source\PSoC4/EMG_DMA_3.h **** static CY_INLINE void EMG_DMA_3_SetConfiguration(int32 descriptor, const cydma_init_struct * config
 253:Generated_Source\PSoC4/EMG_DMA_3.h **** {
 254:Generated_Source\PSoC4/EMG_DMA_3.h ****     CyDmaSetConfiguration(EMG_DMA_3_CHANNEL, descriptor, config);
 255:Generated_Source\PSoC4/EMG_DMA_3.h **** }
 256:Generated_Source\PSoC4/EMG_DMA_3.h **** 
 257:Generated_Source\PSoC4/EMG_DMA_3.h **** 
 258:Generated_Source\PSoC4/EMG_DMA_3.h **** /*******************************************************************************
 259:Generated_Source\PSoC4/EMG_DMA_3.h **** * Function Name: EMG_DMA_3_ValidateDescriptor
 260:Generated_Source\PSoC4/EMG_DMA_3.h **** ********************************************************************************
 261:Generated_Source\PSoC4/EMG_DMA_3.h **** *
 262:Generated_Source\PSoC4/EMG_DMA_3.h **** * Summary:
 263:Generated_Source\PSoC4/EMG_DMA_3.h **** *  Validates the specified descriptor after it has been invalidated.
 264:Generated_Source\PSoC4/EMG_DMA_3.h **** *
 265:Generated_Source\PSoC4/EMG_DMA_3.h **** * Parameters:
 266:Generated_Source\PSoC4/EMG_DMA_3.h **** *  descriptor: Descriptor (0 or 1) modified by this function.
 267:Generated_Source\PSoC4/EMG_DMA_3.h **** *                   
ARM GAS  C:\Users\haras\AppData\Local\Temp\ccolpQfo.s 			page 9


 268:Generated_Source\PSoC4/EMG_DMA_3.h **** * Return:
 269:Generated_Source\PSoC4/EMG_DMA_3.h **** *  None. 
 270:Generated_Source\PSoC4/EMG_DMA_3.h **** *
 271:Generated_Source\PSoC4/EMG_DMA_3.h **** * Side effect:
 272:Generated_Source\PSoC4/EMG_DMA_3.h **** *  The status register associated with the specified descriptor is reset to
 273:Generated_Source\PSoC4/EMG_DMA_3.h **** *  zero after this function call. This function should not be called while the
 274:Generated_Source\PSoC4/EMG_DMA_3.h **** *  descriptor is active. This can be checked by calling CyDmaGetStatus().
 275:Generated_Source\PSoC4/EMG_DMA_3.h **** *
 276:Generated_Source\PSoC4/EMG_DMA_3.h **** *******************************************************************************/
 277:Generated_Source\PSoC4/EMG_DMA_3.h **** static CY_INLINE void EMG_DMA_3_ValidateDescriptor(int32 descriptor)
 278:Generated_Source\PSoC4/EMG_DMA_3.h **** {
 279:Generated_Source\PSoC4/EMG_DMA_3.h ****     CyDmaValidateDescriptor(EMG_DMA_3_CHANNEL, descriptor);
 280:Generated_Source\PSoC4/EMG_DMA_3.h **** }
 281:Generated_Source\PSoC4/EMG_DMA_3.h **** 
 282:Generated_Source\PSoC4/EMG_DMA_3.h **** 
 283:Generated_Source\PSoC4/EMG_DMA_3.h **** /*******************************************************************************
 284:Generated_Source\PSoC4/EMG_DMA_3.h **** * Function Name: EMG_DMA_3_GetDescriptorStatus
 285:Generated_Source\PSoC4/EMG_DMA_3.h **** ********************************************************************************
 286:Generated_Source\PSoC4/EMG_DMA_3.h **** *
 287:Generated_Source\PSoC4/EMG_DMA_3.h **** * Summary:
 288:Generated_Source\PSoC4/EMG_DMA_3.h **** *  Returns the status of the specified descriptor.
 289:Generated_Source\PSoC4/EMG_DMA_3.h **** *
 290:Generated_Source\PSoC4/EMG_DMA_3.h **** * Parameters:
 291:Generated_Source\PSoC4/EMG_DMA_3.h **** *  descriptor: Descriptor (0 or 1) modified by this function.
 292:Generated_Source\PSoC4/EMG_DMA_3.h **** *                   
 293:Generated_Source\PSoC4/EMG_DMA_3.h **** * Return:
 294:Generated_Source\PSoC4/EMG_DMA_3.h **** *  Returns the contents of the specified descriptors status register. Refer to 
 295:Generated_Source\PSoC4/EMG_DMA_3.h **** *  descriptor status register bit definitions in CyDMA_P4.h or the API
 296:Generated_Source\PSoC4/EMG_DMA_3.h **** *  description in the DMA channel datasheet for more information.
 297:Generated_Source\PSoC4/EMG_DMA_3.h **** *
 298:Generated_Source\PSoC4/EMG_DMA_3.h **** *******************************************************************************/
 299:Generated_Source\PSoC4/EMG_DMA_3.h **** static CY_INLINE uint32 EMG_DMA_3_GetDescriptorStatus(int32 descriptor)
 300:Generated_Source\PSoC4/EMG_DMA_3.h **** {
 301:Generated_Source\PSoC4/EMG_DMA_3.h ****     return (CyDmaGetDescriptorStatus(EMG_DMA_3_CHANNEL, descriptor));
 302:Generated_Source\PSoC4/EMG_DMA_3.h **** }
 303:Generated_Source\PSoC4/EMG_DMA_3.h **** 
 304:Generated_Source\PSoC4/EMG_DMA_3.h **** 
 305:Generated_Source\PSoC4/EMG_DMA_3.h **** /*******************************************************************************
 306:Generated_Source\PSoC4/EMG_DMA_3.h **** * Function Name: EMG_DMA_3_SetSrcAddress
 307:Generated_Source\PSoC4/EMG_DMA_3.h **** ********************************************************************************
 308:Generated_Source\PSoC4/EMG_DMA_3.h **** *
 309:Generated_Source\PSoC4/EMG_DMA_3.h **** * Summary:
 310:Generated_Source\PSoC4/EMG_DMA_3.h **** *  Configures the source address for the specified descriptor.
 311:Generated_Source\PSoC4/EMG_DMA_3.h **** *
 312:Generated_Source\PSoC4/EMG_DMA_3.h **** * Parameters:
 313:Generated_Source\PSoC4/EMG_DMA_3.h **** *  descriptor: Descriptor (0 or 1) modified by this function.
 314:Generated_Source\PSoC4/EMG_DMA_3.h **** *  srcAddress: Address of DMA transfer source.
 315:Generated_Source\PSoC4/EMG_DMA_3.h **** *                   
 316:Generated_Source\PSoC4/EMG_DMA_3.h **** * Return:
 317:Generated_Source\PSoC4/EMG_DMA_3.h **** *  None.
 318:Generated_Source\PSoC4/EMG_DMA_3.h **** *
 319:Generated_Source\PSoC4/EMG_DMA_3.h **** * Side effect:
 320:Generated_Source\PSoC4/EMG_DMA_3.h **** *  This function should not be called when the specified descriptor is active
 321:Generated_Source\PSoC4/EMG_DMA_3.h **** *  in the DMA transfer engine. This can be checked by calling CyDmaGetStatus(). 
 322:Generated_Source\PSoC4/EMG_DMA_3.h **** *
 323:Generated_Source\PSoC4/EMG_DMA_3.h **** *******************************************************************************/
 324:Generated_Source\PSoC4/EMG_DMA_3.h **** static CY_INLINE void EMG_DMA_3_SetSrcAddress(int32 descriptor, void * srcAddress)
ARM GAS  C:\Users\haras\AppData\Local\Temp\ccolpQfo.s 			page 10


 325:Generated_Source\PSoC4/EMG_DMA_3.h **** {
 326:Generated_Source\PSoC4/EMG_DMA_3.h ****     CyDmaSetSrcAddress(EMG_DMA_3_CHANNEL, descriptor, srcAddress);
  97              		.loc 2 326 0
  98 001c 2A00     		movs	r2, r5
  99 001e 0021     		movs	r1, #0
 100 0020 0020     		movs	r0, #0
 101 0022 FFF7FEFF 		bl	CyDmaSetSrcAddress
 102              	.LVL3:
 103              	.LBE11:
 104              	.LBE10:
 105              	.LBB12:
 106              	.LBB13:
 327:Generated_Source\PSoC4/EMG_DMA_3.h **** }
 328:Generated_Source\PSoC4/EMG_DMA_3.h **** 
 329:Generated_Source\PSoC4/EMG_DMA_3.h **** 
 330:Generated_Source\PSoC4/EMG_DMA_3.h **** /*******************************************************************************
 331:Generated_Source\PSoC4/EMG_DMA_3.h **** * Function Name: EMG_DMA_3_GetSrcAddress
 332:Generated_Source\PSoC4/EMG_DMA_3.h **** ********************************************************************************
 333:Generated_Source\PSoC4/EMG_DMA_3.h **** *
 334:Generated_Source\PSoC4/EMG_DMA_3.h **** * Summary:
 335:Generated_Source\PSoC4/EMG_DMA_3.h **** *  Returns the source address for the specified descriptor, set by either 
 336:Generated_Source\PSoC4/EMG_DMA_3.h **** *  EMG_DMA_3_Start() or EMG_DMA_3_SetSrcAddress().
 337:Generated_Source\PSoC4/EMG_DMA_3.h **** *
 338:Generated_Source\PSoC4/EMG_DMA_3.h **** * Parameters:
 339:Generated_Source\PSoC4/EMG_DMA_3.h **** *  descriptor: Specifies descriptor (0 or 1) used by this function.
 340:Generated_Source\PSoC4/EMG_DMA_3.h **** *                   
 341:Generated_Source\PSoC4/EMG_DMA_3.h **** * Return:
 342:Generated_Source\PSoC4/EMG_DMA_3.h **** *  Source address written to specified descriptor.
 343:Generated_Source\PSoC4/EMG_DMA_3.h **** *
 344:Generated_Source\PSoC4/EMG_DMA_3.h **** *******************************************************************************/
 345:Generated_Source\PSoC4/EMG_DMA_3.h **** static CY_INLINE void * EMG_DMA_3_GetSrcAddress(int32 descriptor)
 346:Generated_Source\PSoC4/EMG_DMA_3.h **** {
 347:Generated_Source\PSoC4/EMG_DMA_3.h ****     return (CyDmaGetSrcAddress(EMG_DMA_3_CHANNEL, descriptor));
 348:Generated_Source\PSoC4/EMG_DMA_3.h **** }
 349:Generated_Source\PSoC4/EMG_DMA_3.h **** 
 350:Generated_Source\PSoC4/EMG_DMA_3.h **** 
 351:Generated_Source\PSoC4/EMG_DMA_3.h **** /*******************************************************************************
 352:Generated_Source\PSoC4/EMG_DMA_3.h **** * Function Name: EMG_DMA_3_SetDstAddress
 353:Generated_Source\PSoC4/EMG_DMA_3.h **** ********************************************************************************
 354:Generated_Source\PSoC4/EMG_DMA_3.h **** *
 355:Generated_Source\PSoC4/EMG_DMA_3.h **** * Summary:
 356:Generated_Source\PSoC4/EMG_DMA_3.h **** *  Configures the destination address for the specified descriptor.
 357:Generated_Source\PSoC4/EMG_DMA_3.h **** *
 358:Generated_Source\PSoC4/EMG_DMA_3.h **** * Parameters:
 359:Generated_Source\PSoC4/EMG_DMA_3.h **** *  descriptor: Descriptor (0 or 1) modified by this function.
 360:Generated_Source\PSoC4/EMG_DMA_3.h **** *  dstAddress: Address of DMA transfer destination.
 361:Generated_Source\PSoC4/EMG_DMA_3.h **** *                   
 362:Generated_Source\PSoC4/EMG_DMA_3.h **** * Return:
 363:Generated_Source\PSoC4/EMG_DMA_3.h **** *  None.
 364:Generated_Source\PSoC4/EMG_DMA_3.h **** *
 365:Generated_Source\PSoC4/EMG_DMA_3.h **** * Side effect:
 366:Generated_Source\PSoC4/EMG_DMA_3.h **** *  This function should not be called when the specified descriptor is active
 367:Generated_Source\PSoC4/EMG_DMA_3.h **** *  in the DMA transfer engine. This can be checked by calling CyDmaGetStatus(). 
 368:Generated_Source\PSoC4/EMG_DMA_3.h **** *
 369:Generated_Source\PSoC4/EMG_DMA_3.h **** *******************************************************************************/
 370:Generated_Source\PSoC4/EMG_DMA_3.h **** static CY_INLINE void EMG_DMA_3_SetDstAddress(int32 descriptor, void * dstAddress)
 371:Generated_Source\PSoC4/EMG_DMA_3.h **** {
ARM GAS  C:\Users\haras\AppData\Local\Temp\ccolpQfo.s 			page 11


 372:Generated_Source\PSoC4/EMG_DMA_3.h ****     CyDmaSetDstAddress(EMG_DMA_3_CHANNEL, descriptor, dstAddress);
 107              		.loc 2 372 0
 108 0026 2200     		movs	r2, r4
 109 0028 0021     		movs	r1, #0
 110 002a 0020     		movs	r0, #0
 111 002c FFF7FEFF 		bl	CyDmaSetDstAddress
 112              	.LVL4:
 113              	.LBE13:
 114              	.LBE12:
 115              	.LBB14:
 116              	.LBB15:
 279:Generated_Source\PSoC4/EMG_DMA_3.h **** }
 117              		.loc 2 279 0
 118 0030 0021     		movs	r1, #0
 119 0032 0020     		movs	r0, #0
 120 0034 FFF7FEFF 		bl	CyDmaValidateDescriptor
 121              	.LVL5:
 122              	.LBE15:
 123              	.LBE14:
 124              	.LBB16:
 125              	.LBB17:
  96:Generated_Source\PSoC4/EMG_DMA_3.h **** }
 126              		.loc 2 96 0
 127 0038 0020     		movs	r0, #0
 128 003a FFF7FEFF 		bl	CyDmaChEnable
 129              	.LVL6:
 130              	.LBE17:
 131              	.LBE16:
  51:Generated_Source\PSoC4/EMG_DMA_3.c **** 
 132              		.loc 1 51 0
 133              		@ sp needed
 134              	.LVL7:
 135              	.LVL8:
 136 003e 70BD     		pop	{r4, r5, r6, pc}
 137              	.L7:
 138              		.align	2
 139              	.L6:
 140 0040 00000000 		.word	.LANCHOR0
 141              		.cfi_endproc
 142              	.LFE32:
 143              		.size	EMG_DMA_3_Start, .-EMG_DMA_3_Start
 144              		.global	EMG_DMA_3_initVar
 145              		.bss
 146              		.set	.LANCHOR0,. + 0
 147              		.type	EMG_DMA_3_initVar, %object
 148              		.size	EMG_DMA_3_initVar, 1
 149              	EMG_DMA_3_initVar:
 150 0000 00       		.space	1
 151              		.text
 152              	.Letext0:
 153              		.file 3 "Generated_Source\\PSoC4\\cytypes.h"
 154              		.file 4 "Generated_Source\\PSoC4\\CyDMA.h"
 155              		.section	.debug_info,"",%progbits
 156              	.Ldebug_info0:
 157 0000 36030000 		.4byte	0x336
 158 0004 0400     		.2byte	0x4
 159 0006 00000000 		.4byte	.Ldebug_abbrev0
ARM GAS  C:\Users\haras\AppData\Local\Temp\ccolpQfo.s 			page 12


 160 000a 04       		.byte	0x4
 161 000b 01       		.uleb128 0x1
 162 000c A8000000 		.4byte	.LASF31
 163 0010 0C       		.byte	0xc
 164 0011 3B020000 		.4byte	.LASF32
 165 0015 36010000 		.4byte	.LASF33
 166 0019 00000000 		.4byte	.Ldebug_ranges0+0
 167 001d 00000000 		.4byte	0
 168 0021 00000000 		.4byte	.Ldebug_line0
 169 0025 02       		.uleb128 0x2
 170 0026 01       		.byte	0x1
 171 0027 06       		.byte	0x6
 172 0028 05020000 		.4byte	.LASF0
 173 002c 02       		.uleb128 0x2
 174 002d 01       		.byte	0x1
 175 002e 08       		.byte	0x8
 176 002f F7010000 		.4byte	.LASF1
 177 0033 02       		.uleb128 0x2
 178 0034 02       		.byte	0x2
 179 0035 05       		.byte	0x5
 180 0036 60000000 		.4byte	.LASF2
 181 003a 02       		.uleb128 0x2
 182 003b 02       		.byte	0x2
 183 003c 07       		.byte	0x7
 184 003d 7B020000 		.4byte	.LASF3
 185 0041 02       		.uleb128 0x2
 186 0042 04       		.byte	0x4
 187 0043 05       		.byte	0x5
 188 0044 CC010000 		.4byte	.LASF4
 189 0048 02       		.uleb128 0x2
 190 0049 04       		.byte	0x4
 191 004a 07       		.byte	0x7
 192 004b E0020000 		.4byte	.LASF5
 193 004f 02       		.uleb128 0x2
 194 0050 08       		.byte	0x8
 195 0051 05       		.byte	0x5
 196 0052 BE010000 		.4byte	.LASF6
 197 0056 02       		.uleb128 0x2
 198 0057 08       		.byte	0x8
 199 0058 07       		.byte	0x7
 200 0059 11020000 		.4byte	.LASF7
 201 005d 03       		.uleb128 0x3
 202 005e 04       		.byte	0x4
 203 005f 05       		.byte	0x5
 204 0060 696E7400 		.ascii	"int\000"
 205 0064 02       		.uleb128 0x2
 206 0065 04       		.byte	0x4
 207 0066 07       		.byte	0x7
 208 0067 5E020000 		.4byte	.LASF8
 209 006b 04       		.uleb128 0x4
 210 006c B2010000 		.4byte	.LASF9
 211 0070 03       		.byte	0x3
 212 0071 E401     		.2byte	0x1e4
 213 0073 2C000000 		.4byte	0x2c
 214 0077 04       		.uleb128 0x4
 215 0078 D9020000 		.4byte	.LASF10
 216 007c 03       		.byte	0x3
ARM GAS  C:\Users\haras\AppData\Local\Temp\ccolpQfo.s 			page 13


 217 007d E601     		.2byte	0x1e6
 218 007f 48000000 		.4byte	0x48
 219 0083 04       		.uleb128 0x4
 220 0084 F2020000 		.4byte	.LASF11
 221 0088 03       		.byte	0x3
 222 0089 E901     		.2byte	0x1e9
 223 008b 41000000 		.4byte	0x41
 224 008f 02       		.uleb128 0x2
 225 0090 04       		.byte	0x4
 226 0091 04       		.byte	0x4
 227 0092 B8010000 		.4byte	.LASF12
 228 0096 02       		.uleb128 0x2
 229 0097 08       		.byte	0x8
 230 0098 04       		.byte	0x4
 231 0099 F8020000 		.4byte	.LASF13
 232 009d 02       		.uleb128 0x2
 233 009e 01       		.byte	0x1
 234 009f 08       		.byte	0x8
 235 00a0 B1020000 		.4byte	.LASF14
 236 00a4 05       		.uleb128 0x5
 237 00a5 20       		.byte	0x20
 238 00a6 04       		.byte	0x4
 239 00a7 26       		.byte	0x26
 240 00a8 B9000000 		.4byte	0xb9
 241 00ac 06       		.uleb128 0x6
 242 00ad 63746C00 		.ascii	"ctl\000"
 243 00b1 04       		.byte	0x4
 244 00b2 28       		.byte	0x28
 245 00b3 B9000000 		.4byte	0xb9
 246 00b7 00       		.byte	0
 247 00b8 00       		.byte	0
 248 00b9 07       		.uleb128 0x7
 249 00ba 77000000 		.4byte	0x77
 250 00be C9000000 		.4byte	0xc9
 251 00c2 08       		.uleb128 0x8
 252 00c3 C9000000 		.4byte	0xc9
 253 00c7 07       		.byte	0x7
 254 00c8 00       		.byte	0
 255 00c9 02       		.uleb128 0x2
 256 00ca 04       		.byte	0x4
 257 00cb 07       		.byte	0x7
 258 00cc 6A000000 		.4byte	.LASF15
 259 00d0 09       		.uleb128 0x9
 260 00d1 FF020000 		.4byte	.LASF16
 261 00d5 04       		.byte	0x4
 262 00d6 29       		.byte	0x29
 263 00d7 A4000000 		.4byte	0xa4
 264 00db 05       		.uleb128 0x5
 265 00dc 10       		.byte	0x10
 266 00dd 04       		.byte	0x4
 267 00de 2C       		.byte	0x2c
 268 00df 14010000 		.4byte	0x114
 269 00e3 06       		.uleb128 0x6
 270 00e4 73726300 		.ascii	"src\000"
 271 00e8 04       		.byte	0x4
 272 00e9 2E       		.byte	0x2e
 273 00ea 14010000 		.4byte	0x114
ARM GAS  C:\Users\haras\AppData\Local\Temp\ccolpQfo.s 			page 14


 274 00ee 00       		.byte	0
 275 00ef 06       		.uleb128 0x6
 276 00f0 64737400 		.ascii	"dst\000"
 277 00f4 04       		.byte	0x4
 278 00f5 2F       		.byte	0x2f
 279 00f6 14010000 		.4byte	0x114
 280 00fa 04       		.byte	0x4
 281 00fb 06       		.uleb128 0x6
 282 00fc 63746C00 		.ascii	"ctl\000"
 283 0100 04       		.byte	0x4
 284 0101 30       		.byte	0x30
 285 0102 77000000 		.4byte	0x77
 286 0106 08       		.byte	0x8
 287 0107 0A       		.uleb128 0xa
 288 0108 8E020000 		.4byte	.LASF17
 289 010c 04       		.byte	0x4
 290 010d 31       		.byte	0x31
 291 010e 77000000 		.4byte	0x77
 292 0112 0C       		.byte	0xc
 293 0113 00       		.byte	0
 294 0114 0B       		.uleb128 0xb
 295 0115 04       		.byte	0x4
 296 0116 09       		.uleb128 0x9
 297 0117 B6020000 		.4byte	.LASF18
 298 011b 04       		.byte	0x4
 299 011c 32       		.byte	0x32
 300 011d DB000000 		.4byte	0xdb
 301 0121 0C       		.uleb128 0xc
 302 0122 0001     		.2byte	0x100
 303 0124 04       		.byte	0x4
 304 0125 38       		.byte	0x38
 305 0126 37010000 		.4byte	0x137
 306 012a 0A       		.uleb128 0xa
 307 012b 32030000 		.4byte	.LASF19
 308 012f 04       		.byte	0x4
 309 0130 3A       		.byte	0x3a
 310 0131 37010000 		.4byte	0x137
 311 0135 00       		.byte	0
 312 0136 00       		.byte	0
 313 0137 07       		.uleb128 0x7
 314 0138 16010000 		.4byte	0x116
 315 013c 4D010000 		.4byte	0x14d
 316 0140 08       		.uleb128 0x8
 317 0141 C9000000 		.4byte	0xc9
 318 0145 07       		.byte	0x7
 319 0146 08       		.uleb128 0x8
 320 0147 C9000000 		.4byte	0xc9
 321 014b 01       		.byte	0x1
 322 014c 00       		.byte	0
 323 014d 09       		.uleb128 0x9
 324 014e 95020000 		.4byte	.LASF20
 325 0152 04       		.byte	0x4
 326 0153 3B       		.byte	0x3b
 327 0154 21010000 		.4byte	0x121
 328 0158 0D       		.uleb128 0xd
 329 0159 28020000 		.4byte	.LASF34
 330 015d 02       		.byte	0x2
ARM GAS  C:\Users\haras\AppData\Local\Temp\ccolpQfo.s 			page 15


 331 015e 5E       		.byte	0x5e
 332 015f 03       		.byte	0x3
 333 0160 0E       		.uleb128 0xe
 334 0161 73000000 		.4byte	.LASF21
 335 0165 02       		.byte	0x2
 336 0166 1501     		.2byte	0x115
 337 0168 03       		.byte	0x3
 338 0169 7A010000 		.4byte	0x17a
 339 016d 0F       		.uleb128 0xf
 340 016e 32030000 		.4byte	.LASF19
 341 0172 02       		.byte	0x2
 342 0173 1501     		.2byte	0x115
 343 0175 83000000 		.4byte	0x83
 344 0179 00       		.byte	0
 345 017a 0E       		.uleb128 0xe
 346 017b 12000000 		.4byte	.LASF22
 347 017f 02       		.byte	0x2
 348 0180 7201     		.2byte	0x172
 349 0182 03       		.byte	0x3
 350 0183 A0010000 		.4byte	0x1a0
 351 0187 0F       		.uleb128 0xf
 352 0188 32030000 		.4byte	.LASF19
 353 018c 02       		.byte	0x2
 354 018d 7201     		.2byte	0x172
 355 018f 83000000 		.4byte	0x83
 356 0193 0F       		.uleb128 0xf
 357 0194 2A000000 		.4byte	.LASF23
 358 0198 02       		.byte	0x2
 359 0199 7201     		.2byte	0x172
 360 019b 14010000 		.4byte	0x114
 361 019f 00       		.byte	0
 362 01a0 0E       		.uleb128 0xe
 363 01a1 90000000 		.4byte	.LASF24
 364 01a5 02       		.byte	0x2
 365 01a6 4401     		.2byte	0x144
 366 01a8 03       		.byte	0x3
 367 01a9 C6010000 		.4byte	0x1c6
 368 01ad 0F       		.uleb128 0xf
 369 01ae 32030000 		.4byte	.LASF19
 370 01b2 02       		.byte	0x2
 371 01b3 4401     		.2byte	0x144
 372 01b5 83000000 		.4byte	0x83
 373 01b9 0F       		.uleb128 0xf
 374 01ba CE020000 		.4byte	.LASF25
 375 01be 02       		.byte	0x2
 376 01bf 4401     		.2byte	0x144
 377 01c1 14010000 		.4byte	0x114
 378 01c5 00       		.byte	0
 379 01c6 10       		.uleb128 0x10
 380 01c7 E8010000 		.4byte	.LASF35
 381 01cb 01       		.byte	0x1
 382 01cc 4C       		.byte	0x4c
 383 01cd 00000000 		.4byte	.LFB33
 384 01d1 20000000 		.4byte	.LFE33-.LFB33
 385 01d5 01       		.uleb128 0x1
 386 01d6 9C       		.byte	0x9c
 387 01d7 11       		.uleb128 0x11
ARM GAS  C:\Users\haras\AppData\Local\Temp\ccolpQfo.s 			page 16


 388 01d8 6B020000 		.4byte	.LASF36
 389 01dc 01       		.byte	0x1
 390 01dd 27       		.byte	0x27
 391 01de 00000000 		.4byte	.LFB32
 392 01e2 44000000 		.4byte	.LFE32-.LFB32
 393 01e6 01       		.uleb128 0x1
 394 01e7 9C       		.byte	0x9c
 395 01e8 F1020000 		.4byte	0x2f1
 396 01ec 12       		.uleb128 0x12
 397 01ed CE020000 		.4byte	.LASF25
 398 01f1 01       		.byte	0x1
 399 01f2 27       		.byte	0x27
 400 01f3 14010000 		.4byte	0x114
 401 01f7 00000000 		.4byte	.LLST0
 402 01fb 12       		.uleb128 0x12
 403 01fc 2A000000 		.4byte	.LASF23
 404 0200 01       		.byte	0x1
 405 0201 27       		.byte	0x27
 406 0202 14010000 		.4byte	0x114
 407 0206 2C000000 		.4byte	.LLST1
 408 020a 13       		.uleb128 0x13
 409 020b A0010000 		.4byte	0x1a0
 410 020f 1C000000 		.4byte	.LBB10
 411 0213 0A000000 		.4byte	.LBE10-.LBB10
 412 0217 01       		.byte	0x1
 413 0218 2F       		.byte	0x2f
 414 0219 4A020000 		.4byte	0x24a
 415 021d 14       		.uleb128 0x14
 416 021e B9010000 		.4byte	0x1b9
 417 0222 58000000 		.4byte	.LLST2
 418 0226 14       		.uleb128 0x14
 419 0227 AD010000 		.4byte	0x1ad
 420 022b 6B000000 		.4byte	.LLST3
 421 022f 15       		.uleb128 0x15
 422 0230 26000000 		.4byte	.LVL3
 423 0234 02030000 		.4byte	0x302
 424 0238 16       		.uleb128 0x16
 425 0239 01       		.uleb128 0x1
 426 023a 50       		.byte	0x50
 427 023b 01       		.uleb128 0x1
 428 023c 30       		.byte	0x30
 429 023d 16       		.uleb128 0x16
 430 023e 01       		.uleb128 0x1
 431 023f 51       		.byte	0x51
 432 0240 01       		.uleb128 0x1
 433 0241 30       		.byte	0x30
 434 0242 16       		.uleb128 0x16
 435 0243 01       		.uleb128 0x1
 436 0244 52       		.byte	0x52
 437 0245 02       		.uleb128 0x2
 438 0246 75       		.byte	0x75
 439 0247 00       		.sleb128 0
 440 0248 00       		.byte	0
 441 0249 00       		.byte	0
 442 024a 13       		.uleb128 0x13
 443 024b 7A010000 		.4byte	0x17a
 444 024f 26000000 		.4byte	.LBB12
ARM GAS  C:\Users\haras\AppData\Local\Temp\ccolpQfo.s 			page 17


 445 0253 0A000000 		.4byte	.LBE12-.LBB12
 446 0257 01       		.byte	0x1
 447 0258 30       		.byte	0x30
 448 0259 8A020000 		.4byte	0x28a
 449 025d 14       		.uleb128 0x14
 450 025e 93010000 		.4byte	0x193
 451 0262 7F000000 		.4byte	.LLST4
 452 0266 14       		.uleb128 0x14
 453 0267 87010000 		.4byte	0x187
 454 026b 92000000 		.4byte	.LLST5
 455 026f 15       		.uleb128 0x15
 456 0270 30000000 		.4byte	.LVL4
 457 0274 0D030000 		.4byte	0x30d
 458 0278 16       		.uleb128 0x16
 459 0279 01       		.uleb128 0x1
 460 027a 50       		.byte	0x50
 461 027b 01       		.uleb128 0x1
 462 027c 30       		.byte	0x30
 463 027d 16       		.uleb128 0x16
 464 027e 01       		.uleb128 0x1
 465 027f 51       		.byte	0x51
 466 0280 01       		.uleb128 0x1
 467 0281 30       		.byte	0x30
 468 0282 16       		.uleb128 0x16
 469 0283 01       		.uleb128 0x1
 470 0284 52       		.byte	0x52
 471 0285 02       		.uleb128 0x2
 472 0286 74       		.byte	0x74
 473 0287 00       		.sleb128 0
 474 0288 00       		.byte	0
 475 0289 00       		.byte	0
 476 028a 13       		.uleb128 0x13
 477 028b 60010000 		.4byte	0x160
 478 028f 30000000 		.4byte	.LBB14
 479 0293 08000000 		.4byte	.LBE14-.LBB14
 480 0297 01       		.byte	0x1
 481 0298 31       		.byte	0x31
 482 0299 BB020000 		.4byte	0x2bb
 483 029d 14       		.uleb128 0x14
 484 029e 6D010000 		.4byte	0x16d
 485 02a2 A6000000 		.4byte	.LLST6
 486 02a6 15       		.uleb128 0x15
 487 02a7 38000000 		.4byte	.LVL5
 488 02ab 18030000 		.4byte	0x318
 489 02af 16       		.uleb128 0x16
 490 02b0 01       		.uleb128 0x1
 491 02b1 50       		.byte	0x50
 492 02b2 01       		.uleb128 0x1
 493 02b3 30       		.byte	0x30
 494 02b4 16       		.uleb128 0x16
 495 02b5 01       		.uleb128 0x1
 496 02b6 51       		.byte	0x51
 497 02b7 01       		.uleb128 0x1
 498 02b8 30       		.byte	0x30
 499 02b9 00       		.byte	0
 500 02ba 00       		.byte	0
 501 02bb 13       		.uleb128 0x13
ARM GAS  C:\Users\haras\AppData\Local\Temp\ccolpQfo.s 			page 18


 502 02bc 58010000 		.4byte	0x158
 503 02c0 38000000 		.4byte	.LBB16
 504 02c4 06000000 		.4byte	.LBE16-.LBB16
 505 02c8 01       		.byte	0x1
 506 02c9 32       		.byte	0x32
 507 02ca DE020000 		.4byte	0x2de
 508 02ce 15       		.uleb128 0x15
 509 02cf 3E000000 		.4byte	.LVL6
 510 02d3 23030000 		.4byte	0x323
 511 02d7 16       		.uleb128 0x16
 512 02d8 01       		.uleb128 0x1
 513 02d9 50       		.byte	0x50
 514 02da 01       		.uleb128 0x1
 515 02db 30       		.byte	0x30
 516 02dc 00       		.byte	0
 517 02dd 00       		.byte	0
 518 02de 17       		.uleb128 0x17
 519 02df 12000000 		.4byte	.LVL1
 520 02e3 C6010000 		.4byte	0x1c6
 521 02e7 17       		.uleb128 0x17
 522 02e8 1C000000 		.4byte	.LVL2
 523 02ec 2E030000 		.4byte	0x32e
 524 02f0 00       		.byte	0
 525 02f1 18       		.uleb128 0x18
 526 02f2 00000000 		.4byte	.LASF37
 527 02f6 01       		.byte	0x1
 528 02f7 11       		.byte	0x11
 529 02f8 6B000000 		.4byte	0x6b
 530 02fc 05       		.uleb128 0x5
 531 02fd 03       		.byte	0x3
 532 02fe 00000000 		.4byte	EMG_DMA_3_initVar
 533 0302 19       		.uleb128 0x19
 534 0303 4D000000 		.4byte	.LASF26
 535 0307 4D000000 		.4byte	.LASF26
 536 030b 04       		.byte	0x4
 537 030c 93       		.byte	0x93
 538 030d 19       		.uleb128 0x19
 539 030e D5010000 		.4byte	.LASF27
 540 0312 D5010000 		.4byte	.LASF27
 541 0316 04       		.byte	0x4
 542 0317 96       		.byte	0x96
 543 0318 19       		.uleb128 0x19
 544 0319 35000000 		.4byte	.LASF28
 545 031d 35000000 		.4byte	.LASF28
 546 0321 04       		.byte	0x4
 547 0322 8F       		.byte	0x8f
 548 0323 19       		.uleb128 0x19
 549 0324 18030000 		.4byte	.LASF29
 550 0328 18030000 		.4byte	.LASF29
 551 032c 04       		.byte	0x4
 552 032d 82       		.byte	0x82
 553 032e 19       		.uleb128 0x19
 554 032f 26030000 		.4byte	.LASF30
 555 0333 26030000 		.4byte	.LASF30
 556 0337 04       		.byte	0x4
 557 0338 6D       		.byte	0x6d
 558 0339 00       		.byte	0
ARM GAS  C:\Users\haras\AppData\Local\Temp\ccolpQfo.s 			page 19


 559              		.section	.debug_abbrev,"",%progbits
 560              	.Ldebug_abbrev0:
 561 0000 01       		.uleb128 0x1
 562 0001 11       		.uleb128 0x11
 563 0002 01       		.byte	0x1
 564 0003 25       		.uleb128 0x25
 565 0004 0E       		.uleb128 0xe
 566 0005 13       		.uleb128 0x13
 567 0006 0B       		.uleb128 0xb
 568 0007 03       		.uleb128 0x3
 569 0008 0E       		.uleb128 0xe
 570 0009 1B       		.uleb128 0x1b
 571 000a 0E       		.uleb128 0xe
 572 000b 55       		.uleb128 0x55
 573 000c 17       		.uleb128 0x17
 574 000d 11       		.uleb128 0x11
 575 000e 01       		.uleb128 0x1
 576 000f 10       		.uleb128 0x10
 577 0010 17       		.uleb128 0x17
 578 0011 00       		.byte	0
 579 0012 00       		.byte	0
 580 0013 02       		.uleb128 0x2
 581 0014 24       		.uleb128 0x24
 582 0015 00       		.byte	0
 583 0016 0B       		.uleb128 0xb
 584 0017 0B       		.uleb128 0xb
 585 0018 3E       		.uleb128 0x3e
 586 0019 0B       		.uleb128 0xb
 587 001a 03       		.uleb128 0x3
 588 001b 0E       		.uleb128 0xe
 589 001c 00       		.byte	0
 590 001d 00       		.byte	0
 591 001e 03       		.uleb128 0x3
 592 001f 24       		.uleb128 0x24
 593 0020 00       		.byte	0
 594 0021 0B       		.uleb128 0xb
 595 0022 0B       		.uleb128 0xb
 596 0023 3E       		.uleb128 0x3e
 597 0024 0B       		.uleb128 0xb
 598 0025 03       		.uleb128 0x3
 599 0026 08       		.uleb128 0x8
 600 0027 00       		.byte	0
 601 0028 00       		.byte	0
 602 0029 04       		.uleb128 0x4
 603 002a 16       		.uleb128 0x16
 604 002b 00       		.byte	0
 605 002c 03       		.uleb128 0x3
 606 002d 0E       		.uleb128 0xe
 607 002e 3A       		.uleb128 0x3a
 608 002f 0B       		.uleb128 0xb
 609 0030 3B       		.uleb128 0x3b
 610 0031 05       		.uleb128 0x5
 611 0032 49       		.uleb128 0x49
 612 0033 13       		.uleb128 0x13
 613 0034 00       		.byte	0
 614 0035 00       		.byte	0
 615 0036 05       		.uleb128 0x5
ARM GAS  C:\Users\haras\AppData\Local\Temp\ccolpQfo.s 			page 20


 616 0037 13       		.uleb128 0x13
 617 0038 01       		.byte	0x1
 618 0039 0B       		.uleb128 0xb
 619 003a 0B       		.uleb128 0xb
 620 003b 3A       		.uleb128 0x3a
 621 003c 0B       		.uleb128 0xb
 622 003d 3B       		.uleb128 0x3b
 623 003e 0B       		.uleb128 0xb
 624 003f 01       		.uleb128 0x1
 625 0040 13       		.uleb128 0x13
 626 0041 00       		.byte	0
 627 0042 00       		.byte	0
 628 0043 06       		.uleb128 0x6
 629 0044 0D       		.uleb128 0xd
 630 0045 00       		.byte	0
 631 0046 03       		.uleb128 0x3
 632 0047 08       		.uleb128 0x8
 633 0048 3A       		.uleb128 0x3a
 634 0049 0B       		.uleb128 0xb
 635 004a 3B       		.uleb128 0x3b
 636 004b 0B       		.uleb128 0xb
 637 004c 49       		.uleb128 0x49
 638 004d 13       		.uleb128 0x13
 639 004e 38       		.uleb128 0x38
 640 004f 0B       		.uleb128 0xb
 641 0050 00       		.byte	0
 642 0051 00       		.byte	0
 643 0052 07       		.uleb128 0x7
 644 0053 01       		.uleb128 0x1
 645 0054 01       		.byte	0x1
 646 0055 49       		.uleb128 0x49
 647 0056 13       		.uleb128 0x13
 648 0057 01       		.uleb128 0x1
 649 0058 13       		.uleb128 0x13
 650 0059 00       		.byte	0
 651 005a 00       		.byte	0
 652 005b 08       		.uleb128 0x8
 653 005c 21       		.uleb128 0x21
 654 005d 00       		.byte	0
 655 005e 49       		.uleb128 0x49
 656 005f 13       		.uleb128 0x13
 657 0060 2F       		.uleb128 0x2f
 658 0061 0B       		.uleb128 0xb
 659 0062 00       		.byte	0
 660 0063 00       		.byte	0
 661 0064 09       		.uleb128 0x9
 662 0065 16       		.uleb128 0x16
 663 0066 00       		.byte	0
 664 0067 03       		.uleb128 0x3
 665 0068 0E       		.uleb128 0xe
 666 0069 3A       		.uleb128 0x3a
 667 006a 0B       		.uleb128 0xb
 668 006b 3B       		.uleb128 0x3b
 669 006c 0B       		.uleb128 0xb
 670 006d 49       		.uleb128 0x49
 671 006e 13       		.uleb128 0x13
 672 006f 00       		.byte	0
ARM GAS  C:\Users\haras\AppData\Local\Temp\ccolpQfo.s 			page 21


 673 0070 00       		.byte	0
 674 0071 0A       		.uleb128 0xa
 675 0072 0D       		.uleb128 0xd
 676 0073 00       		.byte	0
 677 0074 03       		.uleb128 0x3
 678 0075 0E       		.uleb128 0xe
 679 0076 3A       		.uleb128 0x3a
 680 0077 0B       		.uleb128 0xb
 681 0078 3B       		.uleb128 0x3b
 682 0079 0B       		.uleb128 0xb
 683 007a 49       		.uleb128 0x49
 684 007b 13       		.uleb128 0x13
 685 007c 38       		.uleb128 0x38
 686 007d 0B       		.uleb128 0xb
 687 007e 00       		.byte	0
 688 007f 00       		.byte	0
 689 0080 0B       		.uleb128 0xb
 690 0081 0F       		.uleb128 0xf
 691 0082 00       		.byte	0
 692 0083 0B       		.uleb128 0xb
 693 0084 0B       		.uleb128 0xb
 694 0085 00       		.byte	0
 695 0086 00       		.byte	0
 696 0087 0C       		.uleb128 0xc
 697 0088 13       		.uleb128 0x13
 698 0089 01       		.byte	0x1
 699 008a 0B       		.uleb128 0xb
 700 008b 05       		.uleb128 0x5
 701 008c 3A       		.uleb128 0x3a
 702 008d 0B       		.uleb128 0xb
 703 008e 3B       		.uleb128 0x3b
 704 008f 0B       		.uleb128 0xb
 705 0090 01       		.uleb128 0x1
 706 0091 13       		.uleb128 0x13
 707 0092 00       		.byte	0
 708 0093 00       		.byte	0
 709 0094 0D       		.uleb128 0xd
 710 0095 2E       		.uleb128 0x2e
 711 0096 00       		.byte	0
 712 0097 03       		.uleb128 0x3
 713 0098 0E       		.uleb128 0xe
 714 0099 3A       		.uleb128 0x3a
 715 009a 0B       		.uleb128 0xb
 716 009b 3B       		.uleb128 0x3b
 717 009c 0B       		.uleb128 0xb
 718 009d 27       		.uleb128 0x27
 719 009e 19       		.uleb128 0x19
 720 009f 20       		.uleb128 0x20
 721 00a0 0B       		.uleb128 0xb
 722 00a1 00       		.byte	0
 723 00a2 00       		.byte	0
 724 00a3 0E       		.uleb128 0xe
 725 00a4 2E       		.uleb128 0x2e
 726 00a5 01       		.byte	0x1
 727 00a6 03       		.uleb128 0x3
 728 00a7 0E       		.uleb128 0xe
 729 00a8 3A       		.uleb128 0x3a
ARM GAS  C:\Users\haras\AppData\Local\Temp\ccolpQfo.s 			page 22


 730 00a9 0B       		.uleb128 0xb
 731 00aa 3B       		.uleb128 0x3b
 732 00ab 05       		.uleb128 0x5
 733 00ac 27       		.uleb128 0x27
 734 00ad 19       		.uleb128 0x19
 735 00ae 20       		.uleb128 0x20
 736 00af 0B       		.uleb128 0xb
 737 00b0 01       		.uleb128 0x1
 738 00b1 13       		.uleb128 0x13
 739 00b2 00       		.byte	0
 740 00b3 00       		.byte	0
 741 00b4 0F       		.uleb128 0xf
 742 00b5 05       		.uleb128 0x5
 743 00b6 00       		.byte	0
 744 00b7 03       		.uleb128 0x3
 745 00b8 0E       		.uleb128 0xe
 746 00b9 3A       		.uleb128 0x3a
 747 00ba 0B       		.uleb128 0xb
 748 00bb 3B       		.uleb128 0x3b
 749 00bc 05       		.uleb128 0x5
 750 00bd 49       		.uleb128 0x49
 751 00be 13       		.uleb128 0x13
 752 00bf 00       		.byte	0
 753 00c0 00       		.byte	0
 754 00c1 10       		.uleb128 0x10
 755 00c2 2E       		.uleb128 0x2e
 756 00c3 00       		.byte	0
 757 00c4 3F       		.uleb128 0x3f
 758 00c5 19       		.uleb128 0x19
 759 00c6 03       		.uleb128 0x3
 760 00c7 0E       		.uleb128 0xe
 761 00c8 3A       		.uleb128 0x3a
 762 00c9 0B       		.uleb128 0xb
 763 00ca 3B       		.uleb128 0x3b
 764 00cb 0B       		.uleb128 0xb
 765 00cc 27       		.uleb128 0x27
 766 00cd 19       		.uleb128 0x19
 767 00ce 11       		.uleb128 0x11
 768 00cf 01       		.uleb128 0x1
 769 00d0 12       		.uleb128 0x12
 770 00d1 06       		.uleb128 0x6
 771 00d2 40       		.uleb128 0x40
 772 00d3 18       		.uleb128 0x18
 773 00d4 9742     		.uleb128 0x2117
 774 00d6 19       		.uleb128 0x19
 775 00d7 00       		.byte	0
 776 00d8 00       		.byte	0
 777 00d9 11       		.uleb128 0x11
 778 00da 2E       		.uleb128 0x2e
 779 00db 01       		.byte	0x1
 780 00dc 3F       		.uleb128 0x3f
 781 00dd 19       		.uleb128 0x19
 782 00de 03       		.uleb128 0x3
 783 00df 0E       		.uleb128 0xe
 784 00e0 3A       		.uleb128 0x3a
 785 00e1 0B       		.uleb128 0xb
 786 00e2 3B       		.uleb128 0x3b
ARM GAS  C:\Users\haras\AppData\Local\Temp\ccolpQfo.s 			page 23


 787 00e3 0B       		.uleb128 0xb
 788 00e4 27       		.uleb128 0x27
 789 00e5 19       		.uleb128 0x19
 790 00e6 11       		.uleb128 0x11
 791 00e7 01       		.uleb128 0x1
 792 00e8 12       		.uleb128 0x12
 793 00e9 06       		.uleb128 0x6
 794 00ea 40       		.uleb128 0x40
 795 00eb 18       		.uleb128 0x18
 796 00ec 9742     		.uleb128 0x2117
 797 00ee 19       		.uleb128 0x19
 798 00ef 01       		.uleb128 0x1
 799 00f0 13       		.uleb128 0x13
 800 00f1 00       		.byte	0
 801 00f2 00       		.byte	0
 802 00f3 12       		.uleb128 0x12
 803 00f4 05       		.uleb128 0x5
 804 00f5 00       		.byte	0
 805 00f6 03       		.uleb128 0x3
 806 00f7 0E       		.uleb128 0xe
 807 00f8 3A       		.uleb128 0x3a
 808 00f9 0B       		.uleb128 0xb
 809 00fa 3B       		.uleb128 0x3b
 810 00fb 0B       		.uleb128 0xb
 811 00fc 49       		.uleb128 0x49
 812 00fd 13       		.uleb128 0x13
 813 00fe 02       		.uleb128 0x2
 814 00ff 17       		.uleb128 0x17
 815 0100 00       		.byte	0
 816 0101 00       		.byte	0
 817 0102 13       		.uleb128 0x13
 818 0103 1D       		.uleb128 0x1d
 819 0104 01       		.byte	0x1
 820 0105 31       		.uleb128 0x31
 821 0106 13       		.uleb128 0x13
 822 0107 11       		.uleb128 0x11
 823 0108 01       		.uleb128 0x1
 824 0109 12       		.uleb128 0x12
 825 010a 06       		.uleb128 0x6
 826 010b 58       		.uleb128 0x58
 827 010c 0B       		.uleb128 0xb
 828 010d 59       		.uleb128 0x59
 829 010e 0B       		.uleb128 0xb
 830 010f 01       		.uleb128 0x1
 831 0110 13       		.uleb128 0x13
 832 0111 00       		.byte	0
 833 0112 00       		.byte	0
 834 0113 14       		.uleb128 0x14
 835 0114 05       		.uleb128 0x5
 836 0115 00       		.byte	0
 837 0116 31       		.uleb128 0x31
 838 0117 13       		.uleb128 0x13
 839 0118 02       		.uleb128 0x2
 840 0119 17       		.uleb128 0x17
 841 011a 00       		.byte	0
 842 011b 00       		.byte	0
 843 011c 15       		.uleb128 0x15
ARM GAS  C:\Users\haras\AppData\Local\Temp\ccolpQfo.s 			page 24


 844 011d 898201   		.uleb128 0x4109
 845 0120 01       		.byte	0x1
 846 0121 11       		.uleb128 0x11
 847 0122 01       		.uleb128 0x1
 848 0123 31       		.uleb128 0x31
 849 0124 13       		.uleb128 0x13
 850 0125 00       		.byte	0
 851 0126 00       		.byte	0
 852 0127 16       		.uleb128 0x16
 853 0128 8A8201   		.uleb128 0x410a
 854 012b 00       		.byte	0
 855 012c 02       		.uleb128 0x2
 856 012d 18       		.uleb128 0x18
 857 012e 9142     		.uleb128 0x2111
 858 0130 18       		.uleb128 0x18
 859 0131 00       		.byte	0
 860 0132 00       		.byte	0
 861 0133 17       		.uleb128 0x17
 862 0134 898201   		.uleb128 0x4109
 863 0137 00       		.byte	0
 864 0138 11       		.uleb128 0x11
 865 0139 01       		.uleb128 0x1
 866 013a 31       		.uleb128 0x31
 867 013b 13       		.uleb128 0x13
 868 013c 00       		.byte	0
 869 013d 00       		.byte	0
 870 013e 18       		.uleb128 0x18
 871 013f 34       		.uleb128 0x34
 872 0140 00       		.byte	0
 873 0141 03       		.uleb128 0x3
 874 0142 0E       		.uleb128 0xe
 875 0143 3A       		.uleb128 0x3a
 876 0144 0B       		.uleb128 0xb
 877 0145 3B       		.uleb128 0x3b
 878 0146 0B       		.uleb128 0xb
 879 0147 49       		.uleb128 0x49
 880 0148 13       		.uleb128 0x13
 881 0149 3F       		.uleb128 0x3f
 882 014a 19       		.uleb128 0x19
 883 014b 02       		.uleb128 0x2
 884 014c 18       		.uleb128 0x18
 885 014d 00       		.byte	0
 886 014e 00       		.byte	0
 887 014f 19       		.uleb128 0x19
 888 0150 2E       		.uleb128 0x2e
 889 0151 00       		.byte	0
 890 0152 3F       		.uleb128 0x3f
 891 0153 19       		.uleb128 0x19
 892 0154 3C       		.uleb128 0x3c
 893 0155 19       		.uleb128 0x19
 894 0156 6E       		.uleb128 0x6e
 895 0157 0E       		.uleb128 0xe
 896 0158 03       		.uleb128 0x3
 897 0159 0E       		.uleb128 0xe
 898 015a 3A       		.uleb128 0x3a
 899 015b 0B       		.uleb128 0xb
 900 015c 3B       		.uleb128 0x3b
ARM GAS  C:\Users\haras\AppData\Local\Temp\ccolpQfo.s 			page 25


 901 015d 0B       		.uleb128 0xb
 902 015e 00       		.byte	0
 903 015f 00       		.byte	0
 904 0160 00       		.byte	0
 905              		.section	.debug_loc,"",%progbits
 906              	.Ldebug_loc0:
 907              	.LLST0:
 908 0000 00000000 		.4byte	.LVL0
 909 0004 11000000 		.4byte	.LVL1-1
 910 0008 0100     		.2byte	0x1
 911 000a 50       		.byte	0x50
 912 000b 11000000 		.4byte	.LVL1-1
 913 000f 3E000000 		.4byte	.LVL8
 914 0013 0100     		.2byte	0x1
 915 0015 55       		.byte	0x55
 916 0016 3E000000 		.4byte	.LVL8
 917 001a 44000000 		.4byte	.LFE32
 918 001e 0400     		.2byte	0x4
 919 0020 F3       		.byte	0xf3
 920 0021 01       		.uleb128 0x1
 921 0022 50       		.byte	0x50
 922 0023 9F       		.byte	0x9f
 923 0024 00000000 		.4byte	0
 924 0028 00000000 		.4byte	0
 925              	.LLST1:
 926 002c 00000000 		.4byte	.LVL0
 927 0030 11000000 		.4byte	.LVL1-1
 928 0034 0100     		.2byte	0x1
 929 0036 51       		.byte	0x51
 930 0037 11000000 		.4byte	.LVL1-1
 931 003b 3E000000 		.4byte	.LVL7
 932 003f 0100     		.2byte	0x1
 933 0041 54       		.byte	0x54
 934 0042 3E000000 		.4byte	.LVL7
 935 0046 44000000 		.4byte	.LFE32
 936 004a 0400     		.2byte	0x4
 937 004c F3       		.byte	0xf3
 938 004d 01       		.uleb128 0x1
 939 004e 51       		.byte	0x51
 940 004f 9F       		.byte	0x9f
 941 0050 00000000 		.4byte	0
 942 0054 00000000 		.4byte	0
 943              	.LLST2:
 944 0058 1C000000 		.4byte	.LVL2
 945 005c 26000000 		.4byte	.LVL3
 946 0060 0100     		.2byte	0x1
 947 0062 55       		.byte	0x55
 948 0063 00000000 		.4byte	0
 949 0067 00000000 		.4byte	0
 950              	.LLST3:
 951 006b 1C000000 		.4byte	.LVL2
 952 006f 26000000 		.4byte	.LVL3
 953 0073 0200     		.2byte	0x2
 954 0075 30       		.byte	0x30
 955 0076 9F       		.byte	0x9f
 956 0077 00000000 		.4byte	0
 957 007b 00000000 		.4byte	0
ARM GAS  C:\Users\haras\AppData\Local\Temp\ccolpQfo.s 			page 26


 958              	.LLST4:
 959 007f 26000000 		.4byte	.LVL3
 960 0083 30000000 		.4byte	.LVL4
 961 0087 0100     		.2byte	0x1
 962 0089 54       		.byte	0x54
 963 008a 00000000 		.4byte	0
 964 008e 00000000 		.4byte	0
 965              	.LLST5:
 966 0092 26000000 		.4byte	.LVL3
 967 0096 30000000 		.4byte	.LVL4
 968 009a 0200     		.2byte	0x2
 969 009c 30       		.byte	0x30
 970 009d 9F       		.byte	0x9f
 971 009e 00000000 		.4byte	0
 972 00a2 00000000 		.4byte	0
 973              	.LLST6:
 974 00a6 30000000 		.4byte	.LVL4
 975 00aa 38000000 		.4byte	.LVL5
 976 00ae 0200     		.2byte	0x2
 977 00b0 30       		.byte	0x30
 978 00b1 9F       		.byte	0x9f
 979 00b2 00000000 		.4byte	0
 980 00b6 00000000 		.4byte	0
 981              		.section	.debug_aranges,"",%progbits
 982 0000 24000000 		.4byte	0x24
 983 0004 0200     		.2byte	0x2
 984 0006 00000000 		.4byte	.Ldebug_info0
 985 000a 04       		.byte	0x4
 986 000b 00       		.byte	0
 987 000c 0000     		.2byte	0
 988 000e 0000     		.2byte	0
 989 0010 00000000 		.4byte	.LFB33
 990 0014 20000000 		.4byte	.LFE33-.LFB33
 991 0018 00000000 		.4byte	.LFB32
 992 001c 44000000 		.4byte	.LFE32-.LFB32
 993 0020 00000000 		.4byte	0
 994 0024 00000000 		.4byte	0
 995              		.section	.debug_ranges,"",%progbits
 996              	.Ldebug_ranges0:
 997 0000 00000000 		.4byte	.LFB33
 998 0004 20000000 		.4byte	.LFE33
 999 0008 00000000 		.4byte	.LFB32
 1000 000c 44000000 		.4byte	.LFE32
 1001 0010 00000000 		.4byte	0
 1002 0014 00000000 		.4byte	0
 1003              		.section	.debug_line,"",%progbits
 1004              	.Ldebug_line0:
 1005 0000 A3000000 		.section	.debug_str,"MS",%progbits,1
 1005      02006000 
 1005      00000201 
 1005      FB0E0D00 
 1005      01010101 
 1006              	.LASF37:
 1007 0000 454D475F 		.ascii	"EMG_DMA_3_initVar\000"
 1007      444D415F 
 1007      335F696E 
 1007      69745661 
ARM GAS  C:\Users\haras\AppData\Local\Temp\ccolpQfo.s 			page 27


 1007      7200
 1008              	.LASF22:
 1009 0012 454D475F 		.ascii	"EMG_DMA_3_SetDstAddress\000"
 1009      444D415F 
 1009      335F5365 
 1009      74447374 
 1009      41646472 
 1010              	.LASF23:
 1011 002a 64737441 		.ascii	"dstAddress\000"
 1011      64647265 
 1011      737300
 1012              	.LASF28:
 1013 0035 4379446D 		.ascii	"CyDmaValidateDescriptor\000"
 1013      6156616C 
 1013      69646174 
 1013      65446573 
 1013      63726970 
 1014              	.LASF26:
 1015 004d 4379446D 		.ascii	"CyDmaSetSrcAddress\000"
 1015      61536574 
 1015      53726341 
 1015      64647265 
 1015      737300
 1016              	.LASF2:
 1017 0060 73686F72 		.ascii	"short int\000"
 1017      7420696E 
 1017      7400
 1018              	.LASF15:
 1019 006a 73697A65 		.ascii	"sizetype\000"
 1019      74797065 
 1019      00
 1020              	.LASF21:
 1021 0073 454D475F 		.ascii	"EMG_DMA_3_ValidateDescriptor\000"
 1021      444D415F 
 1021      335F5661 
 1021      6C696461 
 1021      74654465 
 1022              	.LASF24:
 1023 0090 454D475F 		.ascii	"EMG_DMA_3_SetSrcAddress\000"
 1023      444D415F 
 1023      335F5365 
 1023      74537263 
 1023      41646472 
 1024              	.LASF31:
 1025 00a8 474E5520 		.ascii	"GNU C11 5.4.1 20160609 (release) [ARM/embedded-5-br"
 1025      43313120 
 1025      352E342E 
 1025      31203230 
 1025      31363036 
 1026 00db 616E6368 		.ascii	"anch revision 237715] -mcpu=cortex-m0 -mthumb -g -O"
 1026      20726576 
 1026      6973696F 
 1026      6E203233 
 1026      37373135 
 1027 010e 67202D66 		.ascii	"g -ffunction-sections -ffat-lto-objects\000"
 1027      66756E63 
 1027      74696F6E 
ARM GAS  C:\Users\haras\AppData\Local\Temp\ccolpQfo.s 			page 28


 1027      2D736563 
 1027      74696F6E 
 1028              	.LASF33:
 1029 0136 433A5C55 		.ascii	"C:\\Users\\haras\\Documents\\PSoC Creator\\repos\\s"
 1029      73657273 
 1029      5C686172 
 1029      61735C44 
 1029      6F63756D 
 1030 0163 6861646F 		.ascii	"hadow_system_for_uecehand_psoc\\Workspace01\\Shadow"
 1030      775F7379 
 1030      7374656D 
 1030      5F666F72 
 1030      5F756563 
 1031 0194 53797374 		.ascii	"SystemForUECeHand_Proto.cydsn\000"
 1031      656D466F 
 1031      72554543 
 1031      6548616E 
 1031      645F5072 
 1032              	.LASF9:
 1033 01b2 75696E74 		.ascii	"uint8\000"
 1033      3800
 1034              	.LASF12:
 1035 01b8 666C6F61 		.ascii	"float\000"
 1035      7400
 1036              	.LASF6:
 1037 01be 6C6F6E67 		.ascii	"long long int\000"
 1037      206C6F6E 
 1037      6720696E 
 1037      7400
 1038              	.LASF4:
 1039 01cc 6C6F6E67 		.ascii	"long int\000"
 1039      20696E74 
 1039      00
 1040              	.LASF27:
 1041 01d5 4379446D 		.ascii	"CyDmaSetDstAddress\000"
 1041      61536574 
 1041      44737441 
 1041      64647265 
 1041      737300
 1042              	.LASF35:
 1043 01e8 454D475F 		.ascii	"EMG_DMA_3_Init\000"
 1043      444D415F 
 1043      335F496E 
 1043      697400
 1044              	.LASF1:
 1045 01f7 756E7369 		.ascii	"unsigned char\000"
 1045      676E6564 
 1045      20636861 
 1045      7200
 1046              	.LASF0:
 1047 0205 7369676E 		.ascii	"signed char\000"
 1047      65642063 
 1047      68617200 
 1048              	.LASF7:
 1049 0211 6C6F6E67 		.ascii	"long long unsigned int\000"
 1049      206C6F6E 
 1049      6720756E 
ARM GAS  C:\Users\haras\AppData\Local\Temp\ccolpQfo.s 			page 29


 1049      7369676E 
 1049      65642069 
 1050              	.LASF34:
 1051 0228 454D475F 		.ascii	"EMG_DMA_3_ChEnable\000"
 1051      444D415F 
 1051      335F4368 
 1051      456E6162 
 1051      6C6500
 1052              	.LASF32:
 1053 023b 47656E65 		.ascii	"Generated_Source\\PSoC4\\EMG_DMA_3.c\000"
 1053      72617465 
 1053      645F536F 
 1053      75726365 
 1053      5C50536F 
 1054              	.LASF8:
 1055 025e 756E7369 		.ascii	"unsigned int\000"
 1055      676E6564 
 1055      20696E74 
 1055      00
 1056              	.LASF36:
 1057 026b 454D475F 		.ascii	"EMG_DMA_3_Start\000"
 1057      444D415F 
 1057      335F5374 
 1057      61727400 
 1058              	.LASF3:
 1059 027b 73686F72 		.ascii	"short unsigned int\000"
 1059      7420756E 
 1059      7369676E 
 1059      65642069 
 1059      6E7400
 1060              	.LASF17:
 1061 028e 73746174 		.ascii	"status\000"
 1061      757300
 1062              	.LASF20:
 1063 0295 6379646D 		.ascii	"cydma_descriptor_ram_struct\000"
 1063      615F6465 
 1063      73637269 
 1063      70746F72 
 1063      5F72616D 
 1064              	.LASF14:
 1065 02b1 63686172 		.ascii	"char\000"
 1065      00
 1066              	.LASF18:
 1067 02b6 6379646D 		.ascii	"cydma_descriptor_struct\000"
 1067      615F6465 
 1067      73637269 
 1067      70746F72 
 1067      5F737472 
 1068              	.LASF25:
 1069 02ce 73726341 		.ascii	"srcAddress\000"
 1069      64647265 
 1069      737300
 1070              	.LASF10:
 1071 02d9 75696E74 		.ascii	"uint32\000"
 1071      333200
 1072              	.LASF5:
 1073 02e0 6C6F6E67 		.ascii	"long unsigned int\000"
ARM GAS  C:\Users\haras\AppData\Local\Temp\ccolpQfo.s 			page 30


 1073      20756E73 
 1073      69676E65 
 1073      6420696E 
 1073      7400
 1074              	.LASF11:
 1075 02f2 696E7433 		.ascii	"int32\000"
 1075      3200
 1076              	.LASF13:
 1077 02f8 646F7562 		.ascii	"double\000"
 1077      6C6500
 1078              	.LASF16:
 1079 02ff 6379646D 		.ascii	"cydma_channel_ctl_struct\000"
 1079      615F6368 
 1079      616E6E65 
 1079      6C5F6374 
 1079      6C5F7374 
 1080              	.LASF29:
 1081 0318 4379446D 		.ascii	"CyDmaChEnable\000"
 1081      61436845 
 1081      6E61626C 
 1081      6500
 1082              	.LASF30:
 1083 0326 4379446D 		.ascii	"CyDmaEnable\000"
 1083      61456E61 
 1083      626C6500 
 1084              	.LASF19:
 1085 0332 64657363 		.ascii	"descriptor\000"
 1085      72697074 
 1085      6F7200
 1086              		.ident	"GCC: (GNU Tools for ARM Embedded Processors) 5.4.1 20160609 (release) [ARM/embedded-5-bran
